%!PS-Adobe-3.0 EPSF-3.0
%%Creator: (MATLAB, The Mathworks, Inc. Version 9.6.0.1072779 \(R2019a\). Operating System: Linux)
%%Title: ./plot/ContSystem_zeroth/plot_total_J.eps
%%CreationDate: 2019-05-01T16:16:29
%%Pages: (atend)
%%BoundingBox:    16     2   413   281
%%LanguageLevel: 3
%%EndComments
%%BeginProlog
%%BeginResource: procset (Apache XML Graphics Std ProcSet) 1.2 0
%%Version: 1.2 0
%%Copyright: (Copyright 2001-2003,2010 The Apache Software Foundation. License terms: http://www.apache.org/licenses/LICENSE-2.0)
/bd{bind def}bind def
/ld{load def}bd
/GR/grestore ld
/GS/gsave ld
/RM/rmoveto ld
/C/curveto ld
/t/show ld
/L/lineto ld
/ML/setmiterlimit ld
/CT/concat ld
/f/fill ld
/N/newpath ld
/S/stroke ld
/CC/setcmykcolor ld
/A/ashow ld
/cp/closepath ld
/RC/setrgbcolor ld
/LJ/setlinejoin ld
/GC/setgray ld
/LW/setlinewidth ld
/M/moveto ld
/re {4 2 roll M
1 index 0 rlineto
0 exch rlineto
neg 0 rlineto
cp } bd
/_ctm matrix def
/_tm matrix def
/BT { _ctm currentmatrix pop matrix _tm copy pop 0 0 moveto } bd
/ET { _ctm setmatrix } bd
/iTm { _ctm setmatrix _tm concat } bd
/Tm { _tm astore pop iTm 0 0 moveto } bd
/ux 0.0 def
/uy 0.0 def
/F {
  /Tp exch def
  /Tf exch def
  Tf findfont Tp scalefont setfont
  /cf Tf def  /cs Tp def
} bd
/ULS {currentpoint /uy exch def /ux exch def} bd
/ULE {
  /Tcx currentpoint pop def
  gsave
  newpath
  cf findfont cs scalefont dup
  /FontMatrix get 0 get /Ts exch def /FontInfo get dup
  /UnderlinePosition get Ts mul /To exch def
  /UnderlineThickness get Ts mul /Tt exch def
  ux uy To add moveto  Tcx uy To add lineto
  Tt setlinewidth stroke
  grestore
} bd
/OLE {
  /Tcx currentpoint pop def
  gsave
  newpath
  cf findfont cs scalefont dup
  /FontMatrix get 0 get /Ts exch def /FontInfo get dup
  /UnderlinePosition get Ts mul /To exch def
  /UnderlineThickness get Ts mul /Tt exch def
  ux uy To add cs add moveto Tcx uy To add cs add lineto
  Tt setlinewidth stroke
  grestore
} bd
/SOE {
  /Tcx currentpoint pop def
  gsave
  newpath
  cf findfont cs scalefont dup
  /FontMatrix get 0 get /Ts exch def /FontInfo get dup
  /UnderlinePosition get Ts mul /To exch def
  /UnderlineThickness get Ts mul /Tt exch def
  ux uy To add cs 10 mul 26 idiv add moveto Tcx uy To add cs 10 mul 26 idiv add lineto
  Tt setlinewidth stroke
  grestore
} bd
/QT {
/Y22 exch store
/X22 exch store
/Y21 exch store
/X21 exch store
currentpoint
/Y21 load 2 mul add 3 div exch
/X21 load 2 mul add 3 div exch
/X21 load 2 mul /X22 load add 3 div
/Y21 load 2 mul /Y22 load add 3 div
/X22 load /Y22 load curveto
} bd
/SSPD {
dup length /d exch dict def
{
/v exch def
/k exch def
currentpagedevice k known {
/cpdv currentpagedevice k get def
v cpdv ne {
/upd false def
/nullv v type /nulltype eq def
/nullcpdv cpdv type /nulltype eq def
nullv nullcpdv or
{
/upd true def
} {
/sametype v type cpdv type eq def
sametype {
v type /arraytype eq {
/vlen v length def
/cpdvlen cpdv length def
vlen cpdvlen eq {
0 1 vlen 1 sub {
/i exch def
/obj v i get def
/cpdobj cpdv i get def
obj cpdobj ne {
/upd true def
exit
} if
} for
} {
/upd true def
} ifelse
} {
v type /dicttype eq {
v {
/dv exch def
/dk exch def
/cpddv cpdv dk get def
dv cpddv ne {
/upd true def
exit
} if
} forall
} {
/upd true def
} ifelse
} ifelse
} if
} ifelse
upd true eq {
d k v put
} if
} if
} if
} forall
d length 0 gt {
d setpagedevice
} if
} bd
/RE { % /NewFontName [NewEncodingArray] /FontName RE -
  findfont dup length dict begin
  {
    1 index /FID ne
    {def} {pop pop} ifelse
  } forall
  /Encoding exch def
  /FontName 1 index def
  currentdict definefont pop
  end
} bind def
%%EndResource
%%BeginResource: procset (Apache XML Graphics EPS ProcSet) 1.0 0
%%Version: 1.0 0
%%Copyright: (Copyright 2002-2003 The Apache Software Foundation. License terms: http://www.apache.org/licenses/LICENSE-2.0)
/BeginEPSF { %def
/b4_Inc_state save def         % Save state for cleanup
/dict_count countdictstack def % Count objects on dict stack
/op_count count 1 sub def      % Count objects on operand stack
userdict begin                 % Push userdict on dict stack
/showpage { } def              % Redefine showpage, { } = null proc
0 setgray 0 setlinecap         % Prepare graphics state
1 setlinewidth 0 setlinejoin
10 setmiterlimit [ ] 0 setdash newpath
/languagelevel where           % If level not equal to 1 then
{pop languagelevel             % set strokeadjust and
1 ne                           % overprint to their defaults.
{false setstrokeadjust false setoverprint
} if
} if
} bd
/EndEPSF { %def
count op_count sub {pop} repeat            % Clean up stacks
countdictstack dict_count sub {end} repeat
b4_Inc_state restore
} bd
%%EndResource
%FOPBeginFontDict
%%IncludeResource: font Courier-Oblique
%%IncludeResource: font Courier-BoldOblique
%%IncludeResource: font Courier-Bold
%%IncludeResource: font ZapfDingbats
%%IncludeResource: font Symbol
%%IncludeResource: font Helvetica
%%IncludeResource: font Helvetica-Oblique
%%IncludeResource: font Helvetica-Bold
%%IncludeResource: font Helvetica-BoldOblique
%%IncludeResource: font Times-Roman
%%IncludeResource: font Times-Italic
%%IncludeResource: font Times-Bold
%%IncludeResource: font Times-BoldItalic
%%IncludeResource: font Courier
%FOPEndFontDict
%%BeginResource: encoding WinAnsiEncoding
/WinAnsiEncoding [
/.notdef /.notdef /.notdef /.notdef /.notdef
/.notdef /.notdef /.notdef /.notdef /.notdef
/.notdef /.notdef /.notdef /.notdef /.notdef
/.notdef /.notdef /.notdef /.notdef /.notdef
/.notdef /.notdef /.notdef /.notdef /.notdef
/.notdef /.notdef /.notdef /.notdef /.notdef
/.notdef /.notdef /space /exclam /quotedbl
/numbersign /dollar /percent /ampersand /quotesingle
/parenleft /parenright /asterisk /plus /comma
/hyphen /period /slash /zero /one
/two /three /four /five /six
/seven /eight /nine /colon /semicolon
/less /equal /greater /question /at
/A /B /C /D /E
/F /G /H /I /J
/K /L /M /N /O
/P /Q /R /S /T
/U /V /W /X /Y
/Z /bracketleft /backslash /bracketright /asciicircum
/underscore /quoteleft /a /b /c
/d /e /f /g /h
/i /j /k /l /m
/n /o /p /q /r
/s /t /u /v /w
/x /y /z /braceleft /bar
/braceright /asciitilde /bullet /Euro /bullet
/quotesinglbase /florin /quotedblbase /ellipsis /dagger
/daggerdbl /circumflex /perthousand /Scaron /guilsinglleft
/OE /bullet /Zcaron /bullet /bullet
/quoteleft /quoteright /quotedblleft /quotedblright /bullet
/endash /emdash /asciitilde /trademark /scaron
/guilsinglright /oe /bullet /zcaron /Ydieresis
/space /exclamdown /cent /sterling /currency
/yen /brokenbar /section /dieresis /copyright
/ordfeminine /guillemotleft /logicalnot /sfthyphen /registered
/macron /degree /plusminus /twosuperior /threesuperior
/acute /mu /paragraph /middot /cedilla
/onesuperior /ordmasculine /guillemotright /onequarter /onehalf
/threequarters /questiondown /Agrave /Aacute /Acircumflex
/Atilde /Adieresis /Aring /AE /Ccedilla
/Egrave /Eacute /Ecircumflex /Edieresis /Igrave
/Iacute /Icircumflex /Idieresis /Eth /Ntilde
/Ograve /Oacute /Ocircumflex /Otilde /Odieresis
/multiply /Oslash /Ugrave /Uacute /Ucircumflex
/Udieresis /Yacute /Thorn /germandbls /agrave
/aacute /acircumflex /atilde /adieresis /aring
/ae /ccedilla /egrave /eacute /ecircumflex
/edieresis /igrave /iacute /icircumflex /idieresis
/eth /ntilde /ograve /oacute /ocircumflex
/otilde /odieresis /divide /oslash /ugrave
/uacute /ucircumflex /udieresis /yacute /thorn
/ydieresis
] def
%%EndResource
%FOPBeginFontReencode
/Courier-Oblique findfont
dup length dict begin
  {1 index /FID ne {def} {pop pop} ifelse} forall
  /Encoding WinAnsiEncoding def
  currentdict
end
/Courier-Oblique exch definefont pop
/Courier-BoldOblique findfont
dup length dict begin
  {1 index /FID ne {def} {pop pop} ifelse} forall
  /Encoding WinAnsiEncoding def
  currentdict
end
/Courier-BoldOblique exch definefont pop
/Courier-Bold findfont
dup length dict begin
  {1 index /FID ne {def} {pop pop} ifelse} forall
  /Encoding WinAnsiEncoding def
  currentdict
end
/Courier-Bold exch definefont pop
/Helvetica findfont
dup length dict begin
  {1 index /FID ne {def} {pop pop} ifelse} forall
  /Encoding WinAnsiEncoding def
  currentdict
end
/Helvetica exch definefont pop
/Helvetica-Oblique findfont
dup length dict begin
  {1 index /FID ne {def} {pop pop} ifelse} forall
  /Encoding WinAnsiEncoding def
  currentdict
end
/Helvetica-Oblique exch definefont pop
/Helvetica-Bold findfont
dup length dict begin
  {1 index /FID ne {def} {pop pop} ifelse} forall
  /Encoding WinAnsiEncoding def
  currentdict
end
/Helvetica-Bold exch definefont pop
/Helvetica-BoldOblique findfont
dup length dict begin
  {1 index /FID ne {def} {pop pop} ifelse} forall
  /Encoding WinAnsiEncoding def
  currentdict
end
/Helvetica-BoldOblique exch definefont pop
/Times-Roman findfont
dup length dict begin
  {1 index /FID ne {def} {pop pop} ifelse} forall
  /Encoding WinAnsiEncoding def
  currentdict
end
/Times-Roman exch definefont pop
/Times-Italic findfont
dup length dict begin
  {1 index /FID ne {def} {pop pop} ifelse} forall
  /Encoding WinAnsiEncoding def
  currentdict
end
/Times-Italic exch definefont pop
/Times-Bold findfont
dup length dict begin
  {1 index /FID ne {def} {pop pop} ifelse} forall
  /Encoding WinAnsiEncoding def
  currentdict
end
/Times-Bold exch definefont pop
/Times-BoldItalic findfont
dup length dict begin
  {1 index /FID ne {def} {pop pop} ifelse} forall
  /Encoding WinAnsiEncoding def
  currentdict
end
/Times-BoldItalic exch definefont pop
/Courier findfont
dup length dict begin
  {1 index /FID ne {def} {pop pop} ifelse} forall
  /Encoding WinAnsiEncoding def
  currentdict
end
/Courier exch definefont pop
%FOPEndFontReencode
%%EndProlog
%%Page: 1 1
%%PageBoundingBox: 0 0 450 300
%%BeginPageSetup
[1 0 0 -1 0 300] CT
%%EndPageSetup
GS
[0.75 0 0 0.75 0 0] CT
1 GC
N
0 0 600 400 re
f
GR
GS
[0.75 0 0 0.75 0 0] CT
1 GC
N
0 0 600 400 re
f
GR
GS
[0.75 0 0 0.75 0 0] CT
1 GC
N
78 356 M
543 356 L
543 30 L
78 30 L
cp
f
GR
GS
[0.75 0 0 0.75 0 0] CT
0.873 GC
1 LJ
0.667 LW
N
78 356 M
78 30 L
S
GR
GS
[0.75 0 0 0.75 0 0] CT
0.873 GC
1 LJ
0.667 LW
N
171 356 M
171 30 L
S
GR
GS
[0.75 0 0 0.75 0 0] CT
0.873 GC
1 LJ
0.667 LW
N
264 356 M
264 30 L
S
GR
GS
[0.75 0 0 0.75 0 0] CT
0.873 GC
1 LJ
0.667 LW
N
357 356 M
357 30 L
S
GR
GS
[0.75 0 0 0.75 0 0] CT
0.873 GC
1 LJ
0.667 LW
N
450 356 M
450 30 L
S
GR
GS
[0.75 0 0 0.75 0 0] CT
0.873 GC
1 LJ
0.667 LW
N
543 356 M
543 30 L
S
GR
GS
[0.75 0 0 0.75 0 0] CT
0.873 GC
1 LJ
0.667 LW
N
543 356 M
78 356 L
S
GR
GS
[0.75 0 0 0.75 0 0] CT
0.873 GC
1 LJ
0.667 LW
N
543 323.4 M
78 323.4 L
S
GR
GS
[0.75 0 0 0.75 0 0] CT
0.873 GC
1 LJ
0.667 LW
N
543 290.8 M
78 290.8 L
S
GR
GS
[0.75 0 0 0.75 0 0] CT
0.873 GC
1 LJ
0.667 LW
N
543 258.2 M
78 258.2 L
S
GR
GS
[0.75 0 0 0.75 0 0] CT
0.873 GC
1 LJ
0.667 LW
N
543 225.6 M
78 225.6 L
S
GR
GS
[0.75 0 0 0.75 0 0] CT
0.873 GC
1 LJ
0.667 LW
N
543 193 M
78 193 L
S
GR
GS
[0.75 0 0 0.75 0 0] CT
0.873 GC
1 LJ
0.667 LW
N
543 160.4 M
78 160.4 L
S
GR
GS
[0.75 0 0 0.75 0 0] CT
0.873 GC
1 LJ
0.667 LW
N
543 127.8 M
78 127.8 L
S
GR
GS
[0.75 0 0 0.75 0 0] CT
0.873 GC
1 LJ
0.667 LW
N
543 95.2 M
78 95.2 L
S
GR
GS
[0.75 0 0 0.75 0 0] CT
0.873 GC
1 LJ
0.667 LW
N
543 62.6 M
78 62.6 L
S
GR
GS
[0.75 0 0 0.75 0 0] CT
0.873 GC
1 LJ
0.667 LW
N
543 30 M
78 30 L
S
GR
GS
[0.75 0 0 0.75 0 0] CT
0.149 GC
2 setlinecap
1 LJ
0.667 LW
N
78 356 M
543 356 L
S
GR
GS
[0.75 0 0 0.75 0 0] CT
0.149 GC
2 setlinecap
1 LJ
0.667 LW
N
78 30 M
543 30 L
S
GR
GS
[0.75 0 0 0.75 0 0] CT
0.149 GC
2 setlinecap
1 LJ
0.667 LW
N
78 356 M
78 351.35 L
S
GR
GS
[0.75 0 0 0.75 0 0] CT
0.149 GC
2 setlinecap
1 LJ
0.667 LW
N
171 356 M
171 351.35 L
S
GR
GS
[0.75 0 0 0.75 0 0] CT
0.149 GC
2 setlinecap
1 LJ
0.667 LW
N
264 356 M
264 351.35 L
S
GR
GS
[0.75 0 0 0.75 0 0] CT
0.149 GC
2 setlinecap
1 LJ
0.667 LW
N
357 356 M
357 351.35 L
S
GR
GS
[0.75 0 0 0.75 0 0] CT
0.149 GC
2 setlinecap
1 LJ
0.667 LW
N
450 356 M
450 351.35 L
S
GR
GS
[0.75 0 0 0.75 0 0] CT
0.149 GC
2 setlinecap
1 LJ
0.667 LW
N
543 356 M
543 351.35 L
S
GR
GS
[0.75 0 0 0.75 0 0] CT
0.149 GC
2 setlinecap
1 LJ
0.667 LW
N
78 30 M
78 34.65 L
S
GR
GS
[0.75 0 0 0.75 0 0] CT
0.149 GC
2 setlinecap
1 LJ
0.667 LW
N
171 30 M
171 34.65 L
S
GR
GS
[0.75 0 0 0.75 0 0] CT
0.149 GC
2 setlinecap
1 LJ
0.667 LW
N
264 30 M
264 34.65 L
S
GR
GS
[0.75 0 0 0.75 0 0] CT
0.149 GC
2 setlinecap
1 LJ
0.667 LW
N
357 30 M
357 34.65 L
S
GR
GS
[0.75 0 0 0.75 0 0] CT
0.149 GC
2 setlinecap
1 LJ
0.667 LW
N
450 30 M
450 34.65 L
S
GR
GS
[0.75 0 0 0.75 0 0] CT
0.149 GC
2 setlinecap
1 LJ
0.667 LW
N
543 30 M
543 34.65 L
S
GR
GS
[0.75 0 0 0.75 58.5 271.00001] CT
0.149 GC
/Helvetica 13.333 F
GS
[1 0 0 1 0 0] CT
-4.5 12 moveto 
1 -1 scale
(0) t 
GR
GR
GS
[0.75 0 0 0.75 128.25 271.00001] CT
0.149 GC
/Helvetica 13.333 F
GS
[1 0 0 1 0 0] CT
-4.5 12 moveto 
1 -1 scale
(2) t 
GR
GR
GS
[0.75 0 0 0.75 198 271.00001] CT
0.149 GC
/Helvetica 13.333 F
GS
[1 0 0 1 0 0] CT
-4.5 12 moveto 
1 -1 scale
(4) t 
GR
GR
GS
[0.75 0 0 0.75 267.75 271.00001] CT
0.149 GC
/Helvetica 13.333 F
GS
[1 0 0 1 0 0] CT
-4.5 12 moveto 
1 -1 scale
(6) t 
GR
GR
GS
[0.75 0 0 0.75 337.5 271.00001] CT
0.149 GC
/Helvetica 13.333 F
GS
[1 0 0 1 0 0] CT
-4.5 12 moveto 
1 -1 scale
(8) t 
GR
GR
GS
[0.75 0 0 0.75 407.25 271.00001] CT
0.149 GC
/Helvetica 13.333 F
GS
[1 0 0 1 0 0] CT
-8.5 12 moveto 
1 -1 scale
(10) t 
GR
GR
GS
[0.75 0 0 0.75 232.87516 282.49999] CT
0.149 GC
N
-30.034 15.68 M
-30.034 15.008 L
-29.065 15.008 -28.167 14.906 QT
-27.268 14.805 -27.268 14.414 QT
-27.268 3.977 L
-27.268 3.571 -27.495 3.469 QT
-27.721 3.367 -28.237 3.367 QT
-29.034 3.367 L
-30.596 3.367 -31.268 4.055 QT
-31.596 4.399 -31.745 5.156 QT
-31.893 5.914 -32.003 7.055 QT
-32.55 7.055 L
-32.19 2.696 L
-20.581 2.696 L
-20.221 7.055 L
-20.784 7.055 L
-20.893 5.821 -21.026 5.102 QT
-21.159 4.383 -21.503 4.055 QT
-22.175 3.367 -23.737 3.367 QT
-24.534 3.367 L
-24.878 3.367 -25.065 3.399 QT
-25.253 3.43 -25.378 3.563 QT
-25.503 3.696 -25.503 3.977 QT
-25.503 14.414 L
-25.503 14.805 -24.604 14.906 QT
-23.706 15.008 -22.753 15.008 QT
-22.753 15.68 L
-30.034 15.68 L
cp
f
GR
GS
[0.75 0 0 0.75 232.87516 282.49999] CT
0.149 GC
N
-19.177 15.68 M
-19.177 15.008 L
-18.521 15.008 -18.107 14.906 QT
-17.693 14.805 -17.693 14.414 QT
-17.693 9.227 L
-17.693 8.492 -17.974 8.321 QT
-18.256 8.149 -19.084 8.149 QT
-19.084 7.492 L
-16.349 7.289 L
-16.349 14.414 L
-16.349 14.805 -15.99 14.906 QT
-15.631 15.008 -15.021 15.008 QT
-15.021 15.68 L
-19.177 15.68 L
cp
-18.365 4.024 M
-18.365 3.602 -18.052 3.289 QT
-17.74 2.977 -17.318 2.977 QT
-17.052 2.977 -16.802 3.11 QT
-16.552 3.242 -16.412 3.492 QT
-16.271 3.742 -16.271 4.024 QT
-16.271 4.43 -16.592 4.742 QT
-16.912 5.055 -17.318 5.055 QT
-17.74 5.055 -18.052 4.742 QT
-18.365 4.43 -18.365 4.024 QT
cp
f
GR
GS
[0.75 0 0 0.75 232.87516 282.49999] CT
0.149 GC
N
-14.008 15.68 M
-14.008 15.008 L
-13.352 15.008 -12.938 14.906 QT
-12.523 14.805 -12.523 14.414 QT
-12.523 9.227 L
-12.523 8.711 -12.672 8.485 QT
-12.82 8.258 -13.109 8.203 QT
-13.398 8.149 -14.008 8.149 QT
-14.008 7.492 L
-11.242 7.289 L
-11.242 9.133 L
-10.867 8.321 -10.117 7.805 QT
-9.367 7.289 -8.492 7.289 QT
-6.305 7.289 -5.93 9.071 QT
-5.539 8.274 -4.805 7.781 QT
-4.07 7.289 -3.211 7.289 QT
-2.336 7.289 -1.75 7.563 QT
-1.164 7.836 -0.867 8.406 QT
-0.57 8.977 -0.57 9.852 QT
-0.57 14.414 L
-0.57 14.805 -0.148 14.906 QT
0.273 15.008 0.914 15.008 QT
0.914 15.68 L
-3.43 15.68 L
-3.43 15.008 L
-2.789 15.008 -2.367 14.906 QT
-1.945 14.805 -1.945 14.414 QT
-1.945 9.899 L
-1.945 8.946 -2.219 8.36 QT
-2.492 7.774 -3.32 7.774 QT
-4.414 7.774 -5.133 8.656 QT
-5.852 9.539 -5.852 10.664 QT
-5.852 14.414 L
-5.852 14.805 -5.43 14.906 QT
-5.008 15.008 -4.367 15.008 QT
-4.367 15.68 L
-8.711 15.68 L
-8.711 15.008 L
-8.07 15.008 -7.648 14.906 QT
-7.227 14.805 -7.227 14.414 QT
-7.227 9.899 L
-7.227 8.977 -7.5 8.375 QT
-7.773 7.774 -8.602 7.774 QT
-9.711 7.774 -10.422 8.656 QT
-11.133 9.539 -11.133 10.664 QT
-11.133 14.414 L
-11.133 14.805 -10.711 14.906 QT
-10.289 15.008 -9.648 15.008 QT
-9.648 15.68 L
-14.008 15.68 L
cp
f
GR
GS
[0.75 0 0 0.75 232.87516 282.49999] CT
0.149 GC
N
5.72 15.899 M
4.563 15.899 3.595 15.289 QT
2.626 14.68 2.071 13.664 QT
1.516 12.649 1.516 11.508 QT
1.516 10.399 2.024 9.399 QT
2.532 8.399 3.431 7.781 QT
4.329 7.164 5.454 7.164 QT
6.313 7.164 6.962 7.453 QT
7.61 7.742 8.024 8.266 QT
8.438 8.789 8.657 9.492 QT
8.876 10.196 8.876 11.039 QT
8.876 11.289 8.673 11.289 QT
3.173 11.289 L
3.173 11.492 L
3.173 13.071 3.806 14.203 QT
4.438 15.336 5.891 15.336 QT
6.47 15.336 6.962 15.078 QT
7.454 14.821 7.821 14.352 QT
8.188 13.883 8.329 13.367 QT
8.345 13.289 8.391 13.242 QT
8.438 13.196 8.516 13.196 QT
8.673 13.196 L
8.876 13.196 8.876 13.43 QT
8.595 14.508 7.704 15.203 QT
6.813 15.899 5.72 15.899 QT
cp
3.188 10.821 M
7.532 10.821 L
7.532 10.102 7.329 9.367 QT
7.126 8.633 6.665 8.149 QT
6.204 7.664 5.454 7.664 QT
4.376 7.664 3.782 8.672 QT
3.188 9.68 3.188 10.821 QT
cp
f
GR
GS
[0.75 0 0 0.75 232.87516 282.49999] CT
0.149 GC
N
17.754 20.43 M
17.754 1.43 L
20.347 1.43 L
20.347 2.196 L
18.504 2.196 L
18.504 19.664 L
20.347 19.664 L
20.347 20.43 L
17.754 20.43 L
cp
f
GR
GS
[0.75 0 0 0.75 232.87516 282.49999] CT
0.149 GC
N
21.314 15.742 M
21.314 12.633 L
21.314 12.492 21.486 12.492 QT
21.72 12.492 L
21.83 12.492 21.861 12.633 QT
22.392 15.399 24.423 15.399 QT
25.33 15.399 25.939 14.985 QT
26.548 14.571 26.548 13.727 QT
26.548 13.117 26.072 12.68 QT
25.595 12.242 24.955 12.086 QT
23.673 11.836 L
23.033 11.696 22.509 11.406 QT
21.986 11.117 21.65 10.641 QT
21.314 10.164 21.314 9.539 QT
21.314 8.696 21.759 8.164 QT
22.205 7.633 22.908 7.399 QT
23.611 7.164 24.423 7.164 QT
25.408 7.164 26.126 7.68 QT
26.673 7.211 L
26.673 7.164 26.767 7.164 QT
26.908 7.164 L
26.955 7.164 27.001 7.211 QT
27.048 7.258 27.048 7.321 QT
27.048 9.805 L
27.048 9.977 26.908 9.977 QT
26.673 9.977 L
26.501 9.977 26.501 9.805 QT
26.501 8.821 25.955 8.211 QT
25.408 7.602 24.408 7.602 QT
23.548 7.602 22.923 7.922 QT
22.298 8.242 22.298 9.008 QT
22.298 9.539 22.751 9.875 QT
23.205 10.211 23.814 10.367 QT
25.095 10.602 L
25.751 10.758 26.306 11.11 QT
26.861 11.461 27.197 12 QT
27.533 12.539 27.533 13.211 QT
27.533 13.899 27.29 14.406 QT
27.048 14.914 26.626 15.242 QT
26.205 15.571 25.634 15.735 QT
25.064 15.899 24.423 15.899 QT
23.236 15.899 22.392 15.102 QT
21.705 15.852 L
21.705 15.899 21.595 15.899 QT
21.486 15.899 L
21.314 15.899 21.314 15.742 QT
cp
f
GR
GS
[0.75 0 0 0.75 232.87516 282.49999] CT
0.149 GC
N
28.474 20.43 M
28.474 19.664 L
30.318 19.664 L
30.318 2.196 L
28.474 2.196 L
28.474 1.43 L
31.083 1.43 L
31.083 20.43 L
28.474 20.43 L
cp
f
GR
GS
[0.75 0 0 0.75 0 0] CT
0.149 GC
2 setlinecap
1 LJ
0.667 LW
N
78 356 M
78 30 L
S
GR
GS
[0.75 0 0 0.75 0 0] CT
0.149 GC
2 setlinecap
1 LJ
0.667 LW
N
543 356 M
543 30 L
S
GR
GS
[0.75 0 0 0.75 0 0] CT
0.149 GC
2 setlinecap
1 LJ
0.667 LW
N
78 356 M
82.65 356 L
S
GR
GS
[0.75 0 0 0.75 0 0] CT
0.149 GC
2 setlinecap
1 LJ
0.667 LW
N
78 323.4 M
82.65 323.4 L
S
GR
GS
[0.75 0 0 0.75 0 0] CT
0.149 GC
2 setlinecap
1 LJ
0.667 LW
N
78 290.8 M
82.65 290.8 L
S
GR
GS
[0.75 0 0 0.75 0 0] CT
0.149 GC
2 setlinecap
1 LJ
0.667 LW
N
78 258.2 M
82.65 258.2 L
S
GR
GS
[0.75 0 0 0.75 0 0] CT
0.149 GC
2 setlinecap
1 LJ
0.667 LW
N
78 225.6 M
82.65 225.6 L
S
GR
GS
[0.75 0 0 0.75 0 0] CT
0.149 GC
2 setlinecap
1 LJ
0.667 LW
N
78 193 M
82.65 193 L
S
GR
GS
[0.75 0 0 0.75 0 0] CT
0.149 GC
2 setlinecap
1 LJ
0.667 LW
N
78 160.4 M
82.65 160.4 L
S
GR
GS
[0.75 0 0 0.75 0 0] CT
0.149 GC
2 setlinecap
1 LJ
0.667 LW
N
78 127.8 M
82.65 127.8 L
S
GR
GS
[0.75 0 0 0.75 0 0] CT
0.149 GC
2 setlinecap
1 LJ
0.667 LW
N
78 95.2 M
82.65 95.2 L
S
GR
GS
[0.75 0 0 0.75 0 0] CT
0.149 GC
2 setlinecap
1 LJ
0.667 LW
N
78 62.6 M
82.65 62.6 L
S
GR
GS
[0.75 0 0 0.75 0 0] CT
0.149 GC
2 setlinecap
1 LJ
0.667 LW
N
78 30 M
82.65 30 L
S
GR
GS
[0.75 0 0 0.75 0 0] CT
0.149 GC
2 setlinecap
1 LJ
0.667 LW
N
543 356 M
538.35 356 L
S
GR
GS
[0.75 0 0 0.75 0 0] CT
0.149 GC
2 setlinecap
1 LJ
0.667 LW
N
543 323.4 M
538.35 323.4 L
S
GR
GS
[0.75 0 0 0.75 0 0] CT
0.149 GC
2 setlinecap
1 LJ
0.667 LW
N
543 290.8 M
538.35 290.8 L
S
GR
GS
[0.75 0 0 0.75 0 0] CT
0.149 GC
2 setlinecap
1 LJ
0.667 LW
N
543 258.2 M
538.35 258.2 L
S
GR
GS
[0.75 0 0 0.75 0 0] CT
0.149 GC
2 setlinecap
1 LJ
0.667 LW
N
543 225.6 M
538.35 225.6 L
S
GR
GS
[0.75 0 0 0.75 0 0] CT
0.149 GC
2 setlinecap
1 LJ
0.667 LW
N
543 193 M
538.35 193 L
S
GR
GS
[0.75 0 0 0.75 0 0] CT
0.149 GC
2 setlinecap
1 LJ
0.667 LW
N
543 160.4 M
538.35 160.4 L
S
GR
GS
[0.75 0 0 0.75 0 0] CT
0.149 GC
2 setlinecap
1 LJ
0.667 LW
N
543 127.8 M
538.35 127.8 L
S
GR
GS
[0.75 0 0 0.75 0 0] CT
0.149 GC
2 setlinecap
1 LJ
0.667 LW
N
543 95.2 M
538.35 95.2 L
S
GR
GS
[0.75 0 0 0.75 0 0] CT
0.149 GC
2 setlinecap
1 LJ
0.667 LW
N
543 62.6 M
538.35 62.6 L
S
GR
GS
[0.75 0 0 0.75 0 0] CT
0.149 GC
2 setlinecap
1 LJ
0.667 LW
N
543 30 M
538.35 30 L
S
GR
GS
[0.75 0 0 0.75 54.5 267] CT
0.149 GC
/Helvetica 13.333 F
GS
[1 0 0 1 0 0] CT
-9 5 moveto 
1 -1 scale
(0) t 
GR
GR
GS
[0.75 0 0 0.75 54.5 242.55] CT
0.149 GC
/Helvetica 13.333 F
GS
[1 0 0 1 0 0] CT
-17 5 moveto 
1 -1 scale
(10) t 
GR
GR
GS
[0.75 0 0 0.75 54.5 218.09999] CT
0.149 GC
/Helvetica 13.333 F
GS
[1 0 0 1 0 0] CT
-17 5 moveto 
1 -1 scale
(20) t 
GR
GR
GS
[0.75 0 0 0.75 54.5 193.65001] CT
0.149 GC
/Helvetica 13.333 F
GS
[1 0 0 1 0 0] CT
-17 5 moveto 
1 -1 scale
(30) t 
GR
GR
GS
[0.75 0 0 0.75 54.5 169.2] CT
0.149 GC
/Helvetica 13.333 F
GS
[1 0 0 1 0 0] CT
-17 5 moveto 
1 -1 scale
(40) t 
GR
GR
GS
[0.75 0 0 0.75 54.5 144.75] CT
0.149 GC
/Helvetica 13.333 F
GS
[1 0 0 1 0 0] CT
-17 5 moveto 
1 -1 scale
(50) t 
GR
GR
GS
[0.75 0 0 0.75 54.5 120.3] CT
0.149 GC
/Helvetica 13.333 F
GS
[1 0 0 1 0 0] CT
-17 5 moveto 
1 -1 scale
(60) t 
GR
GR
GS
[0.75 0 0 0.75 54.5 95.85] CT
0.149 GC
/Helvetica 13.333 F
GS
[1 0 0 1 0 0] CT
-17 5 moveto 
1 -1 scale
(70) t 
GR
GR
GS
[0.75 0 0 0.75 54.5 71.4] CT
0.149 GC
/Helvetica 13.333 F
GS
[1 0 0 1 0 0] CT
-17 5 moveto 
1 -1 scale
(80) t 
GR
GR
GS
[0.75 0 0 0.75 54.5 46.95] CT
0.149 GC
/Helvetica 13.333 F
GS
[1 0 0 1 0 0] CT
-17 5 moveto 
1 -1 scale
(90) t 
GR
GR
GS
[0.75 0 0 0.75 54.5 22.5] CT
0.149 GC
/Helvetica 13.333 F
GS
[1 0 0 1 0 0] CT
-26 5 moveto 
1 -1 scale
(100) t 
GR
GR
GS
[0 -0.75 0.75 0 32 144.74989] CT
0.149 GC
N
-36.9 -6.454 M
-36.9 -10.892 L
-36.9 -11.033 -36.728 -11.033 QT
-36.493 -11.033 L
-36.446 -11.033 -36.4 -10.986 QT
-36.353 -10.939 -36.353 -10.892 QT
-36.353 -9.017 -35.196 -7.994 QT
-34.04 -6.97 -32.165 -6.97 QT
-31.509 -6.97 -30.946 -7.353 QT
-30.384 -7.736 -30.079 -8.353 QT
-29.775 -8.97 -29.775 -9.626 QT
-29.775 -10.204 -30.001 -10.744 QT
-30.228 -11.283 -30.665 -11.681 QT
-31.103 -12.079 -31.65 -12.22 QT
-34.118 -12.814 L
-35.353 -13.142 -36.126 -14.15 QT
-36.9 -15.158 -36.9 -16.408 QT
-36.9 -17.392 -36.4 -18.251 QT
-35.9 -19.111 -35.048 -19.611 QT
-34.196 -20.111 -33.212 -20.111 QT
-31.306 -20.111 -30.181 -18.829 QT
-29.415 -20.064 L
-29.353 -20.111 -29.275 -20.111 QT
-29.15 -20.111 L
-29.087 -20.111 -29.04 -20.072 QT
-28.993 -20.033 -28.993 -19.954 QT
-28.993 -15.548 L
-28.993 -15.392 -29.15 -15.392 QT
-29.368 -15.392 L
-29.54 -15.392 -29.54 -15.548 QT
-29.54 -16.033 -29.704 -16.611 QT
-29.868 -17.189 -30.157 -17.712 QT
-30.446 -18.236 -30.775 -18.579 QT
-31.696 -19.501 -33.212 -19.501 QT
-33.868 -19.501 -34.415 -19.173 QT
-34.962 -18.845 -35.282 -18.283 QT
-35.603 -17.72 -35.603 -17.095 QT
-35.603 -16.283 -35.095 -15.619 QT
-34.587 -14.954 -33.775 -14.736 QT
-31.306 -14.126 L
-30.696 -13.986 -30.157 -13.603 QT
-29.618 -13.22 -29.251 -12.704 QT
-28.884 -12.189 -28.681 -11.564 QT
-28.478 -10.939 -28.478 -10.267 QT
-28.478 -9.251 -28.954 -8.337 QT
-29.431 -7.423 -30.29 -6.861 QT
-31.15 -6.298 -32.165 -6.298 QT
-32.79 -6.298 -33.454 -6.439 QT
-34.118 -6.579 -34.673 -6.869 QT
-35.228 -7.158 -35.681 -7.611 QT
-36.478 -6.361 L
-36.54 -6.298 -36.618 -6.298 QT
-36.728 -6.298 L
-36.9 -6.298 -36.9 -6.454 QT
cp
f
GR
GS
[0 -0.75 0.75 0 32 144.74989] CT
0.149 GC
N
-25.545 -8.986 M
-25.545 -13.173 L
-25.545 -13.689 -25.693 -13.915 QT
-25.842 -14.142 -26.131 -14.197 QT
-26.42 -14.251 -27.029 -14.251 QT
-27.029 -14.908 L
-24.154 -15.111 L
-24.154 -8.986 L
-24.154 -8.236 -24.045 -7.829 QT
-23.935 -7.423 -23.592 -7.212 QT
-23.248 -7.001 -22.482 -7.001 QT
-21.467 -7.001 -20.857 -7.861 QT
-20.248 -8.72 -20.248 -9.798 QT
-20.248 -13.173 L
-20.248 -13.689 -20.412 -13.915 QT
-20.576 -14.142 -20.857 -14.197 QT
-21.139 -14.251 -21.732 -14.251 QT
-21.732 -14.908 L
-18.873 -15.111 L
-18.873 -8.439 L
-18.873 -7.939 -18.717 -7.712 QT
-18.56 -7.486 -18.271 -7.439 QT
-17.982 -7.392 -17.389 -7.392 QT
-17.389 -6.72 L
-20.201 -6.501 L
-20.201 -8.111 L
-20.545 -7.392 -21.178 -6.947 QT
-21.81 -6.501 -22.576 -6.501 QT
-23.935 -6.501 -24.74 -7.087 QT
-25.545 -7.673 -25.545 -8.986 QT
cp
f
GR
GS
[0 -0.75 0.75 0 32 144.74989] CT
0.149 GC
N
-16.659 -6.72 M
-16.659 -7.392 L
-16.003 -7.392 -15.588 -7.494 QT
-15.174 -7.595 -15.174 -7.986 QT
-15.174 -13.173 L
-15.174 -13.689 -15.323 -13.915 QT
-15.471 -14.142 -15.76 -14.197 QT
-16.049 -14.251 -16.659 -14.251 QT
-16.659 -14.908 L
-13.893 -15.111 L
-13.893 -13.267 L
-13.518 -14.079 -12.768 -14.595 QT
-12.018 -15.111 -11.143 -15.111 QT
-8.956 -15.111 -8.581 -13.329 QT
-8.19 -14.126 -7.456 -14.619 QT
-6.721 -15.111 -5.862 -15.111 QT
-4.987 -15.111 -4.401 -14.837 QT
-3.815 -14.564 -3.518 -13.994 QT
-3.221 -13.423 -3.221 -12.548 QT
-3.221 -7.986 L
-3.221 -7.595 -2.799 -7.494 QT
-2.378 -7.392 -1.737 -7.392 QT
-1.737 -6.72 L
-6.081 -6.72 L
-6.081 -7.392 L
-5.44 -7.392 -5.018 -7.494 QT
-4.596 -7.595 -4.596 -7.986 QT
-4.596 -12.501 L
-4.596 -13.454 -4.87 -14.04 QT
-5.143 -14.626 -5.971 -14.626 QT
-7.065 -14.626 -7.784 -13.744 QT
-8.503 -12.861 -8.503 -11.736 QT
-8.503 -7.986 L
-8.503 -7.595 -8.081 -7.494 QT
-7.659 -7.392 -7.018 -7.392 QT
-7.018 -6.72 L
-11.362 -6.72 L
-11.362 -7.392 L
-10.721 -7.392 -10.299 -7.494 QT
-9.878 -7.595 -9.878 -7.986 QT
-9.878 -12.501 L
-9.878 -13.423 -10.151 -14.025 QT
-10.424 -14.626 -11.253 -14.626 QT
-12.362 -14.626 -13.073 -13.744 QT
-13.784 -12.861 -13.784 -11.736 QT
-13.784 -7.986 L
-13.784 -7.595 -13.362 -7.494 QT
-12.94 -7.392 -12.299 -7.392 QT
-12.299 -6.72 L
-16.659 -6.72 L
cp
f
GR
GS
[0 -0.75 0.75 0 32 144.74989] CT
0.149 GC
N
9.307 -6.501 M
8.166 -6.501 7.189 -7.087 QT
6.213 -7.673 5.65 -8.642 QT
5.088 -9.611 5.088 -10.767 QT
5.088 -11.642 5.4 -12.447 QT
5.713 -13.251 6.291 -13.884 QT
6.869 -14.517 7.635 -14.876 QT
8.4 -15.236 9.307 -15.236 QT
10.478 -15.236 11.439 -14.619 QT
12.4 -14.001 12.955 -12.97 QT
13.51 -11.939 13.51 -10.767 QT
13.51 -9.626 12.947 -8.65 QT
12.385 -7.673 11.408 -7.087 QT
10.432 -6.501 9.307 -6.501 QT
cp
9.307 -7.064 M
10.822 -7.064 11.338 -8.165 QT
11.853 -9.267 11.853 -10.986 QT
11.853 -11.939 11.752 -12.564 QT
11.65 -13.189 11.307 -13.704 QT
11.088 -14.017 10.76 -14.251 QT
10.432 -14.486 10.064 -14.611 QT
9.697 -14.736 9.307 -14.736 QT
8.713 -14.736 8.182 -14.47 QT
7.65 -14.204 7.291 -13.704 QT
6.947 -13.158 6.846 -12.517 QT
6.744 -11.876 6.744 -10.986 QT
6.744 -9.908 6.932 -9.064 QT
7.119 -8.22 7.682 -7.642 QT
8.244 -7.064 9.307 -7.064 QT
cp
f
GR
GS
[0 -0.75 0.75 0 32 144.74989] CT
0.149 GC
N
14.499 -6.72 M
14.499 -7.392 L
15.14 -7.392 15.562 -7.494 QT
15.984 -7.595 15.984 -7.986 QT
15.984 -14.251 L
14.515 -14.251 L
14.515 -14.908 L
15.984 -14.908 L
15.984 -17.189 L
15.984 -17.798 16.234 -18.329 QT
16.484 -18.861 16.913 -19.259 QT
17.343 -19.658 17.906 -19.884 QT
18.468 -20.111 19.077 -20.111 QT
19.718 -20.111 20.234 -19.736 QT
20.749 -19.361 20.749 -18.72 QT
20.749 -18.361 20.499 -18.119 QT
20.249 -17.876 19.89 -17.876 QT
19.531 -17.876 19.273 -18.119 QT
19.015 -18.361 19.015 -18.72 QT
19.015 -19.314 19.531 -19.517 QT
19.218 -19.626 18.984 -19.626 QT
18.421 -19.626 18.031 -19.228 QT
17.64 -18.829 17.445 -18.267 QT
17.249 -17.704 17.249 -17.142 QT
17.249 -14.908 L
19.437 -14.908 L
19.437 -14.251 L
17.312 -14.251 L
17.312 -7.986 L
17.312 -7.595 17.866 -7.494 QT
18.421 -7.392 19.156 -7.392 QT
19.156 -6.72 L
14.499 -6.72 L
cp
f
GR
GS
[0 -0.75 0.75 0 32 144.74989] CT
0.149 GC
N
27.878 -7.861 M
28.066 -7.329 28.566 -7.064 QT
29.066 -6.798 29.66 -6.798 QT
30.253 -6.798 30.8 -7.212 QT
31.347 -7.626 31.738 -8.244 QT
32.128 -8.861 32.269 -9.47 QT
34.519 -18.47 L
34.535 -18.533 34.542 -18.572 QT
34.55 -18.611 34.55 -18.658 QT
34.55 -18.861 34.41 -18.908 QT
33.91 -19.033 32.378 -19.033 QT
32.175 -19.033 32.175 -19.283 QT
32.222 -19.423 32.246 -19.509 QT
32.269 -19.595 32.324 -19.65 QT
32.378 -19.704 32.503 -19.704 QT
37.66 -19.704 L
37.847 -19.704 37.847 -19.454 QT
37.769 -19.033 37.597 -19.033 QT
36.925 -19.033 36.581 -18.931 QT
36.238 -18.829 36.113 -18.376 QT
33.863 -9.408 L
33.66 -8.517 33.003 -7.806 QT
32.347 -7.095 31.449 -6.697 QT
30.55 -6.298 29.644 -6.298 QT
28.644 -6.298 27.886 -6.861 QT
27.128 -7.423 27.128 -8.376 QT
27.128 -9.001 27.472 -9.454 QT
27.816 -9.908 28.441 -9.908 QT
28.8 -9.908 29.05 -9.689 QT
29.3 -9.47 29.3 -9.111 QT
29.3 -8.611 28.917 -8.228 QT
28.535 -7.845 28.019 -7.845 QT
27.925 -7.845 27.878 -7.861 QT
cp
f
GR
GS
[0.75 0 0 0.75 0 0] CT
0 0.447 0.741 RC
1 LJ
2.667 LW
N
78 356 M
82.65 326.467 L
87.3 290.093 L
91.95 257.683 L
96.6 229.005 L
101.25 203.267 L
105.9 180.276 L
110.55 159.953 L
115.2 142.212 L
119.85 126.91 L
124.5 113.865 L
129.15 102.852 L
133.8 93.66 L
138.45 86.052 L
143.1 79.807 L
147.75 74.72 L
152.4 70.606 L
157.05 67.298 L
161.7 64.653 L
166.35 62.549 L
171 60.882 L
175.65 59.568 L
180.3 58.535 L
184.95 57.725 L
189.6 57.093 L
194.25 56.6 L
198.9 56.218 L
203.55 55.921 L
208.2 55.691 L
212.85 55.514 L
217.5 55.377 L
222.15 55.271 L
226.8 55.19 L
231.45 55.128 L
236.1 55.08 L
240.75 55.044 L
245.4 55.016 L
250.05 54.994 L
254.7 54.978 L
259.35 54.965 L
264 54.956 L
268.65 54.948 L
273.3 54.943 L
277.95 54.938 L
282.6 54.935 L
287.25 54.933 L
291.9 54.931 L
296.55 54.929 L
301.2 54.928 L
305.85 54.927 L
310.5 54.927 L
315.15 54.926 L
319.8 54.926 L
324.45 54.926 L
329.1 54.926 L
333.75 54.925 L
338.4 54.925 L
343.05 54.925 L
347.7 54.925 L
352.35 54.925 L
357 54.925 L
361.65 54.925 L
366.3 54.925 L
370.95 54.925 L
375.6 54.925 L
380.25 54.925 L
384.9 54.925 L
389.55 54.925 L
394.2 54.925 L
398.85 54.925 L
403.5 54.925 L
408.15 54.925 L
412.8 54.925 L
417.45 54.925 L
422.1 54.925 L
426.75 54.925 L
431.4 54.925 L
436.05 54.925 L
440.7 54.925 L
445.35 54.925 L
450 54.925 L
454.65 54.925 L
459.3 54.925 L
463.95 54.925 L
468.6 54.925 L
473.25 54.925 L
477.9 54.925 L
482.55 54.925 L
487.2 54.925 L
491.85 54.925 L
496.5 54.925 L
501.15 54.925 L
505.8 54.925 L
510.45 54.925 L
515.1 54.925 L
519.75 54.925 L
524.4 54.925 L
529.05 54.925 L
533.7 54.925 L
538.35 54.925 L
543 54.925 L
S
GR
GS
[0.75 0 0 0.75 0 0] CT
0.851 0.325 0.098 RC
1 LJ
0.667 LW
N
78 54.925 M
82.65 54.925 L
87.3 54.925 L
91.95 54.925 L
96.6 54.925 L
101.25 54.925 L
105.9 54.925 L
110.55 54.925 L
115.2 54.925 L
119.85 54.925 L
124.5 54.925 L
129.15 54.925 L
133.8 54.925 L
138.45 54.925 L
143.1 54.925 L
147.75 54.925 L
152.4 54.925 L
157.05 54.925 L
161.7 54.925 L
166.35 54.925 L
171 54.925 L
175.65 54.925 L
180.3 54.925 L
184.95 54.925 L
189.6 54.925 L
194.25 54.925 L
198.9 54.925 L
203.55 54.925 L
208.2 54.925 L
212.85 54.925 L
217.5 54.925 L
222.15 54.925 L
226.8 54.925 L
231.45 54.925 L
236.1 54.925 L
240.75 54.925 L
245.4 54.925 L
250.05 54.925 L
254.7 54.925 L
259.35 54.925 L
264 54.925 L
268.65 54.925 L
273.3 54.925 L
277.95 54.925 L
282.6 54.925 L
287.25 54.925 L
291.9 54.925 L
296.55 54.925 L
301.2 54.925 L
305.85 54.925 L
310.5 54.925 L
315.15 54.925 L
319.8 54.925 L
324.45 54.925 L
329.1 54.925 L
333.75 54.925 L
338.4 54.925 L
343.05 54.925 L
347.7 54.925 L
352.35 54.925 L
357 54.925 L
361.65 54.925 L
366.3 54.925 L
370.95 54.925 L
375.6 54.925 L
380.25 54.925 L
384.9 54.925 L
389.55 54.925 L
394.2 54.925 L
398.85 54.925 L
403.5 54.925 L
408.15 54.925 L
412.8 54.925 L
417.45 54.925 L
422.1 54.925 L
426.75 54.925 L
431.4 54.925 L
436.05 54.925 L
440.7 54.925 L
445.35 54.925 L
450 54.925 L
454.65 54.925 L
459.3 54.925 L
463.95 54.925 L
468.6 54.925 L
473.25 54.925 L
477.9 54.925 L
482.55 54.925 L
487.2 54.925 L
491.85 54.925 L
496.5 54.925 L
501.15 54.925 L
505.8 54.925 L
510.45 54.925 L
515.1 54.925 L
519.75 54.925 L
524.4 54.925 L
529.05 54.925 L
533.7 54.925 L
538.35 54.925 L
543 54.925 L
S
GR
GS
[0.75 0 0 0.75 61.9875 36.30364] CT
/Helvetica 13.333 F
GS
[1 0 0 1 0 0] CT
0 5 moveto 
1 -1 scale
(92.3543) t 
GR
GR
GS
[0.75 0 0 0.75 0 0] CT
1 GC
N
532 345 M
532 299 L
369 299 L
369 345 L
cp
f
GR
GS
[0.75 0 0 0.75 311.99323 233.52983] CT
N
1.844 3.144 M
2.016 3.613 2.461 3.855 QT
2.906 4.097 3.438 4.097 QT
3.969 4.097 4.461 3.722 QT
4.953 3.347 5.297 2.793 QT
5.641 2.238 5.781 1.691 QT
7.781 -6.356 L
7.797 -6.418 7.805 -6.449 QT
7.813 -6.481 7.813 -6.512 QT
7.813 -6.699 7.688 -6.746 QT
7.234 -6.856 5.875 -6.856 QT
5.688 -6.856 5.688 -7.074 QT
5.734 -7.215 5.75 -7.285 QT
5.766 -7.356 5.82 -7.403 QT
5.875 -7.449 5.984 -7.449 QT
10.594 -7.449 L
10.766 -7.449 10.766 -7.231 QT
10.688 -6.856 10.547 -6.856 QT
9.938 -6.856 9.633 -6.762 QT
9.328 -6.668 9.219 -6.278 QT
7.203 1.754 L
7.016 2.551 6.43 3.183 QT
5.844 3.816 5.039 4.176 QT
4.234 4.535 3.422 4.535 QT
2.531 4.535 1.852 4.035 QT
1.172 3.535 1.172 2.676 QT
1.172 2.113 1.477 1.707 QT
1.781 1.301 2.344 1.301 QT
2.672 1.301 2.891 1.504 QT
3.109 1.707 3.109 2.019 QT
3.109 2.472 2.773 2.816 QT
2.438 3.16 1.969 3.16 QT
1.891 3.16 1.844 3.144 QT
cp
f
GR
GS
[0.75 0 0 0.75 0 0] CT
0 0.447 0.741 RC
1 LJ
2.667 LW
N
372.999 311.373 M
412.992 311.373 L
S
GR
GS
[0.75 0 0 0.75 311.99323 249.47017] CT
N
/f812418323{1.844 3.144 M
2.016 3.613 2.461 3.855 QT
2.906 4.097 3.438 4.097 QT
3.969 4.097 4.461 3.722 QT
4.953 3.347 5.297 2.793 QT
5.641 2.238 5.781 1.691 QT
7.781 -6.356 L
7.797 -6.418 7.805 -6.449 QT
7.813 -6.481 7.813 -6.512 QT
7.813 -6.699 7.688 -6.746 QT
7.234 -6.856 5.875 -6.856 QT
5.688 -6.856 5.688 -7.074 QT
5.734 -7.215 5.75 -7.285 QT
5.766 -7.356 5.82 -7.403 QT
5.875 -7.449 5.984 -7.449 QT
10.594 -7.449 L
10.766 -7.449 10.766 -7.231 QT
10.688 -6.856 10.547 -6.856 QT
9.938 -6.856 9.633 -6.762 QT
9.328 -6.668 9.219 -6.278 QT
7.203 1.754 L
7.016 2.551 6.43 3.183 QT
5.844 3.816 5.039 4.176 QT
4.234 4.535 3.422 4.535 QT
2.531 4.535 1.852 4.035 QT
1.172 3.535 1.172 2.676 QT
1.172 2.113 1.477 1.707 QT
1.781 1.301 2.344 1.301 QT
2.672 1.301 2.891 1.504 QT
3.109 1.707 3.109 2.019 QT
3.109 2.472 2.773 2.816 QT
2.438 3.16 1.969 3.16 QT
1.891 3.16 1.844 3.144 QT
cp}def
f812418323
f
GR
GS
[0.75 0 0 0.75 311.99323 249.47017] CT
N
/f203192752{10.221 6.76 M
10.112 6.76 10.112 6.604 QT
10.112 6.572 10.127 6.502 QT
10.143 6.432 10.174 6.385 QT
10.205 6.338 10.268 6.338 QT
11.408 6.338 11.596 5.604 QT
13.158 -0.662 L
13.174 -0.771 13.174 -0.818 QT
13.174 -0.959 13.033 -0.974 QT
12.799 -1.021 12.174 -1.021 QT
12.049 -1.021 12.049 -1.178 QT
12.049 -1.209 12.073 -1.279 QT
12.096 -1.349 12.127 -1.396 QT
12.158 -1.443 12.205 -1.443 QT
14.315 -1.443 L
14.455 -1.443 14.471 -1.303 QT
15.408 5.572 L
19.783 -1.303 L
19.862 -1.443 20.002 -1.443 QT
22.049 -1.443 L
22.158 -1.443 22.158 -1.287 QT
22.158 -1.256 22.143 -1.178 QT
22.127 -1.099 22.096 -1.06 QT
22.065 -1.021 22.018 -1.021 QT
21.283 -1.021 20.987 -0.928 QT
20.83 -0.881 20.768 -0.599 QT
19.112 5.979 L
19.096 6.104 19.096 6.151 QT
19.096 6.197 19.112 6.229 QT
19.127 6.26 19.151 6.268 QT
19.174 6.276 19.237 6.291 QT
19.455 6.338 20.096 6.338 QT
20.221 6.338 20.221 6.494 QT
20.174 6.666 20.151 6.713 QT
20.127 6.76 20.018 6.76 QT
16.877 6.76 L
16.768 6.76 16.768 6.604 QT
16.768 6.572 16.791 6.502 QT
16.815 6.432 16.846 6.385 QT
16.877 6.338 16.924 6.338 QT
17.658 6.338 17.94 6.26 QT
18.096 6.197 18.174 5.932 QT
19.893 -1.021 L
15.049 6.619 L
14.987 6.76 14.815 6.76 QT
14.658 6.76 14.643 6.619 QT
13.627 -0.928 L
11.971 5.651 L
11.955 5.682 11.955 5.729 QT
11.955 5.776 11.94 5.838 QT
11.94 6.151 12.213 6.244 QT
12.487 6.338 12.877 6.338 QT
13.002 6.338 13.002 6.494 QT
12.955 6.651 12.932 6.705 QT
12.908 6.76 12.799 6.76 QT
10.221 6.76 L
cp}def
f203192752
f
GR
GS
[0.75 0 0 0.75 311.99323 249.47017] CT
N
/f1140352927{24.799 6.901 M
24.034 6.901 23.596 6.322 QT
23.159 5.744 23.159 4.979 QT
23.159 4.197 23.557 3.377 QT
23.955 2.557 24.635 2.01 QT
25.315 1.463 26.096 1.463 QT
26.455 1.463 26.737 1.651 QT
27.018 1.838 27.174 2.182 QT
27.299 1.697 27.705 1.697 QT
27.846 1.697 27.948 1.791 QT
28.049 1.885 28.049 2.026 QT
28.049 2.072 28.049 2.088 QT
28.049 2.104 28.049 2.119 QT
27.205 5.479 L
27.127 5.838 27.127 6.057 QT
27.127 6.572 27.471 6.572 QT
27.846 6.572 28.041 6.096 QT
28.237 5.619 28.377 4.994 QT
28.393 4.932 28.471 4.932 QT
28.612 4.932 L
28.659 4.932 28.69 4.971 QT
28.721 5.01 28.721 5.041 QT
28.502 5.885 28.252 6.393 QT
28.002 6.901 27.44 6.901 QT
27.049 6.901 26.737 6.658 QT
26.424 6.416 26.346 6.026 QT
25.565 6.901 24.799 6.901 QT
cp
24.799 6.572 M
25.237 6.572 25.643 6.252 QT
26.049 5.932 26.346 5.494 QT
26.362 5.479 26.362 5.447 QT
27.002 2.838 L
27.018 2.807 L
26.94 2.385 26.705 2.072 QT
26.471 1.76 26.065 1.76 QT
25.659 1.76 25.307 2.096 QT
24.955 2.432 24.721 2.885 QT
24.487 3.354 24.276 4.197 QT
24.065 5.041 24.065 5.494 QT
24.065 5.916 24.244 6.244 QT
24.424 6.572 24.799 6.572 QT
cp}def
f1140352927
f
GR
GS
[0.75 0 0 0.75 311.99323 249.47017] CT
N
/f329160286{30.056 6.416 M
30.275 6.572 30.65 6.572 QT
31.025 6.572 31.314 6.213 QT
31.603 5.854 31.713 5.432 QT
32.26 3.307 L
32.385 2.729 32.385 2.51 QT
32.385 2.213 32.221 1.986 QT
32.056 1.76 31.744 1.76 QT
31.369 1.76 31.033 2.002 QT
30.697 2.244 30.471 2.611 QT
30.244 2.979 30.15 3.354 QT
30.135 3.432 30.056 3.432 QT
29.916 3.432 L
29.822 3.432 29.822 3.307 QT
29.822 3.276 L
29.931 2.838 30.213 2.408 QT
30.494 1.979 30.9 1.721 QT
31.306 1.463 31.775 1.463 QT
32.213 1.463 32.564 1.697 QT
32.916 1.932 33.072 2.322 QT
33.275 1.963 33.596 1.713 QT
33.916 1.463 34.291 1.463 QT
34.556 1.463 34.822 1.549 QT
35.088 1.635 35.26 1.822 QT
35.431 2.01 35.431 2.291 QT
35.431 2.604 35.236 2.822 QT
35.041 3.041 34.728 3.041 QT
34.541 3.041 34.408 2.916 QT
34.275 2.791 34.275 2.604 QT
34.275 2.354 34.455 2.166 QT
34.635 1.979 34.869 1.932 QT
34.65 1.76 34.275 1.76 QT
33.885 1.76 33.603 2.119 QT
33.322 2.479 33.197 2.916 QT
32.666 5.041 L
32.541 5.526 32.541 5.838 QT
32.541 6.135 32.713 6.354 QT
32.885 6.572 33.181 6.572 QT
33.744 6.572 34.181 6.08 QT
34.619 5.588 34.76 4.994 QT
34.791 4.932 34.853 4.932 QT
35.01 4.932 L
35.056 4.932 35.08 4.963 QT
35.103 4.994 35.103 5.026 QT
35.103 5.041 35.103 5.072 QT
34.931 5.776 34.385 6.338 QT
33.838 6.901 33.15 6.901 QT
32.713 6.901 32.361 6.658 QT
32.01 6.416 31.853 6.01 QT
31.666 6.369 31.338 6.635 QT
31.01 6.901 30.635 6.901 QT
30.369 6.901 30.096 6.807 QT
29.822 6.713 29.658 6.526 QT
29.494 6.338 29.494 6.057 QT
29.494 5.776 29.689 5.541 QT
29.885 5.307 30.181 5.307 QT
30.369 5.307 30.51 5.424 QT
30.65 5.541 30.65 5.744 QT
30.65 5.994 30.478 6.182 QT
30.306 6.369 30.056 6.416 QT
cp}def
f329160286
f
GR
GS
[0.75 0 0 0.75 311.99323 249.47017] CT
N
/f1031924043{43.016 1.894 M
42.875 1.894 42.782 1.793 QT
42.688 1.691 42.688 1.566 QT
42.688 1.426 42.782 1.324 QT
42.875 1.222 43.016 1.222 QT
53.688 1.222 L
53.813 1.222 53.907 1.324 QT
54 1.426 54 1.566 QT
54 1.691 53.907 1.793 QT
53.813 1.894 53.688 1.894 QT
43.016 1.894 L
cp
43.016 -1.403 M
42.875 -1.403 42.782 -1.504 QT
42.688 -1.606 42.688 -1.746 QT
42.688 -1.871 42.782 -1.981 QT
42.875 -2.09 43.016 -2.09 QT
53.688 -2.09 L
53.813 -2.09 53.907 -1.981 QT
54 -1.871 54 -1.746 QT
54 -1.606 53.907 -1.504 QT
53.813 -1.403 53.688 -1.403 QT
43.016 -1.403 L
cp}def
f1031924043
f
GR
GS
[0.75 0 0 0.75 311.99323 249.47017] CT
N
/f-857963148{57.138 3.441 M
57.591 3.988 58.748 3.988 QT
59.404 3.988 59.959 3.551 QT
60.513 3.113 60.826 2.472 QT
61.185 1.754 61.287 0.933 QT
61.388 0.113 61.388 -1.09 QT
61.091 -0.403 60.552 0.035 QT
60.013 0.472 59.295 0.472 QT
58.31 0.472 57.537 -0.059 QT
56.763 -0.59 56.349 -1.473 QT
55.935 -2.356 55.935 -3.34 QT
55.935 -4.356 56.396 -5.239 QT
56.857 -6.121 57.677 -6.645 QT
58.498 -7.168 59.545 -7.168 QT
60.576 -7.168 61.271 -6.606 QT
61.966 -6.043 62.334 -5.16 QT
62.701 -4.278 62.841 -3.285 QT
62.982 -2.293 62.982 -1.34 QT
62.982 -0.028 62.505 1.34 QT
62.029 2.707 61.068 3.621 QT
60.107 4.535 58.748 4.535 QT
57.748 4.535 57.052 4.058 QT
56.357 3.582 56.357 2.629 QT
56.357 2.285 56.591 2.051 QT
56.826 1.816 57.17 1.816 QT
57.513 1.816 57.748 2.051 QT
57.982 2.285 57.982 2.629 QT
57.982 2.957 57.748 3.199 QT
57.513 3.441 57.17 3.441 QT
57.138 3.441 L
cp
59.373 0.019 M
60.06 0.019 60.505 -0.449 QT
60.951 -0.918 61.154 -1.614 QT
61.357 -2.309 61.357 -2.996 QT
61.357 -3.324 L
61.357 -3.387 L
61.357 -4.668 60.982 -5.668 QT
60.607 -6.668 59.545 -6.668 QT
58.873 -6.668 58.459 -6.379 QT
58.045 -6.09 57.841 -5.598 QT
57.638 -5.106 57.584 -4.551 QT
57.529 -3.996 57.529 -3.34 QT
57.529 -2.371 57.623 -1.692 QT
57.716 -1.012 58.123 -0.496 QT
58.529 0.019 59.373 0.019 QT
cp}def
f-857963148
f
GR
GS
[0.75 0 0 0.75 311.99323 249.47017] CT
N
/f-1346833816{64.727 4.16 M
64.727 3.707 L
64.727 3.66 64.758 3.613 QT
67.399 0.691 L
68.008 0.035 68.375 -0.403 QT
68.742 -0.84 69.11 -1.41 QT
69.477 -1.981 69.688 -2.574 QT
69.899 -3.168 69.899 -3.84 QT
69.899 -4.528 69.641 -5.168 QT
69.383 -5.809 68.875 -6.184 QT
68.367 -6.559 67.649 -6.559 QT
66.899 -6.559 66.313 -6.121 QT
65.727 -5.684 65.492 -4.965 QT
65.555 -4.981 65.664 -4.981 QT
66.055 -4.981 66.321 -4.731 QT
66.586 -4.481 66.586 -4.059 QT
66.586 -3.684 66.321 -3.41 QT
66.055 -3.137 65.664 -3.137 QT
65.274 -3.137 65 -3.418 QT
64.727 -3.699 64.727 -4.059 QT
64.727 -4.699 64.969 -5.262 QT
65.211 -5.824 65.664 -6.262 QT
66.117 -6.699 66.688 -6.934 QT
67.258 -7.168 67.899 -7.168 QT
68.867 -7.168 69.703 -6.754 QT
70.539 -6.34 71.032 -5.59 QT
71.524 -4.84 71.524 -3.84 QT
71.524 -3.09 71.196 -2.426 QT
70.867 -1.762 70.367 -1.223 QT
69.867 -0.684 69.078 0.004 QT
68.289 0.691 68.039 0.926 QT
66.102 2.785 L
67.742 2.785 L
68.946 2.785 69.758 2.761 QT
70.571 2.738 70.617 2.691 QT
70.821 2.488 71.024 1.129 QT
71.524 1.129 L
71.039 4.16 L
64.727 4.16 L
cp}def
f-1346833816
f
GR
GS
[0.75 0 0 0.75 311.99323 249.47017] CT
N
/f483267009{73.972 3.222 M
73.972 2.847 74.261 2.566 QT
74.55 2.285 74.909 2.285 QT
75.144 2.285 75.37 2.41 QT
75.597 2.535 75.722 2.761 QT
75.847 2.988 75.847 3.222 QT
75.847 3.597 75.573 3.879 QT
75.3 4.16 74.909 4.16 QT
74.55 4.16 74.261 3.879 QT
73.972 3.597 73.972 3.222 QT
cp}def
f483267009
f
GR
GS
[0.75 0 0 0.75 311.99323 249.47017] CT
N
/f125141577{78.99 2.847 M
79.38 3.426 80.052 3.707 QT
80.724 3.988 81.505 3.988 QT
82.49 3.988 82.904 3.152 QT
83.318 2.316 83.318 1.238 QT
83.318 0.754 83.232 0.277 QT
83.146 -0.199 82.935 -0.621 QT
82.724 -1.043 82.365 -1.285 QT
82.005 -1.528 81.49 -1.528 QT
80.349 -1.528 L
80.208 -1.528 80.208 -1.699 QT
80.208 -1.84 L
80.208 -1.981 80.349 -1.981 QT
81.286 -2.043 L
81.896 -2.043 82.286 -2.496 QT
82.677 -2.949 82.857 -3.59 QT
83.036 -4.231 83.036 -4.809 QT
83.036 -5.621 82.661 -6.145 QT
82.286 -6.668 81.505 -6.668 QT
80.849 -6.668 80.263 -6.426 QT
79.677 -6.184 79.318 -5.684 QT
79.365 -5.699 79.388 -5.699 QT
79.411 -5.699 79.443 -5.699 QT
79.818 -5.699 80.076 -5.434 QT
80.333 -5.168 80.333 -4.793 QT
80.333 -4.434 80.076 -4.168 QT
79.818 -3.903 79.443 -3.903 QT
79.068 -3.903 78.802 -4.168 QT
78.536 -4.434 78.536 -4.793 QT
78.536 -5.528 78.974 -6.067 QT
79.411 -6.606 80.107 -6.887 QT
80.802 -7.168 81.505 -7.168 QT
82.021 -7.168 82.591 -7.012 QT
83.161 -6.856 83.622 -6.567 QT
84.083 -6.278 84.38 -5.832 QT
84.677 -5.387 84.677 -4.809 QT
84.677 -4.106 84.357 -3.496 QT
84.036 -2.887 83.482 -2.449 QT
82.927 -2.012 82.255 -1.793 QT
83.005 -1.653 83.669 -1.239 QT
84.333 -0.824 84.732 -0.176 QT
85.13 0.472 85.13 1.222 QT
85.13 2.16 84.615 2.918 QT
84.099 3.676 83.263 4.105 QT
82.427 4.535 81.505 4.535 QT
80.708 4.535 79.904 4.23 QT
79.099 3.926 78.591 3.324 QT
78.083 2.722 78.083 1.863 QT
78.083 1.441 78.365 1.16 QT
78.646 0.879 79.068 0.879 QT
79.333 0.879 79.568 1.011 QT
79.802 1.144 79.927 1.371 QT
80.052 1.597 80.052 1.863 QT
80.052 2.285 79.763 2.566 QT
79.474 2.847 79.068 2.847 QT
78.99 2.847 L
cp}def
f125141577
f
GR
GS
[0.75 0 0 0.75 311.99323 249.47017] CT
N
/f1227081692{87.516 2.222 M
87.688 2.722 88.047 3.129 QT
88.406 3.535 88.898 3.761 QT
89.391 3.988 89.922 3.988 QT
91.156 3.988 91.617 3.035 QT
92.078 2.082 92.078 0.722 QT
92.078 0.129 92.063 -0.27 QT
92.047 -0.668 91.953 -1.043 QT
91.797 -1.637 91.398 -2.09 QT
91 -2.543 90.438 -2.543 QT
89.859 -2.543 89.445 -2.364 QT
89.031 -2.184 88.773 -1.957 QT
88.516 -1.731 88.32 -1.473 QT
88.125 -1.215 88.078 -1.199 QT
87.875 -1.199 L
87.844 -1.199 87.781 -1.254 QT
87.719 -1.309 87.719 -1.356 QT
87.719 -7.028 L
87.719 -7.074 87.773 -7.121 QT
87.828 -7.168 87.875 -7.168 QT
87.938 -7.168 L
89.078 -6.621 90.359 -6.621 QT
91.625 -6.621 92.797 -7.168 QT
92.844 -7.168 L
92.906 -7.168 92.953 -7.121 QT
93 -7.074 93 -7.028 QT
93 -6.871 L
93 -6.793 92.969 -6.793 QT
92.391 -6.012 91.516 -5.582 QT
90.641 -5.153 89.703 -5.153 QT
89.016 -5.153 88.313 -5.34 QT
88.313 -2.137 L
88.875 -2.59 89.32 -2.785 QT
89.766 -2.981 90.453 -2.981 QT
91.391 -2.981 92.133 -2.442 QT
92.875 -1.903 93.273 -1.035 QT
93.672 -0.168 93.672 0.738 QT
93.672 1.754 93.164 2.629 QT
92.656 3.504 91.797 4.019 QT
90.938 4.535 89.922 4.535 QT
89.094 4.535 88.391 4.105 QT
87.688 3.676 87.281 2.941 QT
86.875 2.207 86.875 1.394 QT
86.875 1.004 87.125 0.761 QT
87.375 0.519 87.75 0.519 QT
88.125 0.519 88.375 0.769 QT
88.625 1.019 88.625 1.394 QT
88.625 1.754 88.375 2.004 QT
88.125 2.254 87.75 2.254 QT
87.688 2.254 87.617 2.246 QT
87.547 2.238 87.516 2.222 QT
cp}def
f1227081692
f
GR
GS
[0.75 0 0 0.75 311.99323 249.47017] CT
N
/f98420834{95.167 1.347 M
95.167 0.754 L
100.432 -7.074 L
100.479 -7.168 100.604 -7.168 QT
100.854 -7.168 L
101.042 -7.168 101.042 -6.965 QT
101.042 0.754 L
102.714 0.754 L
102.714 1.347 L
101.042 1.347 L
101.042 3.019 L
101.042 3.379 101.542 3.472 QT
102.042 3.566 102.698 3.566 QT
102.698 4.16 L
98.01 4.16 L
98.01 3.566 L
98.667 3.566 99.167 3.472 QT
99.667 3.379 99.667 3.019 QT
99.667 1.347 L
95.167 1.347 L
cp
95.729 0.754 M
99.76 0.754 L
99.76 -5.262 L
95.729 0.754 L
cp}def
f98420834
f
GR
GS
[0.75 0 0 0.75 311.99323 249.47017] CT
N
/f1160089{104.99 2.847 M
105.38 3.426 106.052 3.707 QT
106.724 3.988 107.505 3.988 QT
108.49 3.988 108.904 3.152 QT
109.318 2.316 109.318 1.238 QT
109.318 0.754 109.232 0.277 QT
109.146 -0.199 108.935 -0.621 QT
108.724 -1.043 108.365 -1.285 QT
108.005 -1.528 107.49 -1.528 QT
106.349 -1.528 L
106.208 -1.528 106.208 -1.699 QT
106.208 -1.84 L
106.208 -1.981 106.349 -1.981 QT
107.287 -2.043 L
107.896 -2.043 108.287 -2.496 QT
108.677 -2.949 108.857 -3.59 QT
109.037 -4.231 109.037 -4.809 QT
109.037 -5.621 108.662 -6.145 QT
108.287 -6.668 107.505 -6.668 QT
106.849 -6.668 106.263 -6.426 QT
105.677 -6.184 105.318 -5.684 QT
105.365 -5.699 105.388 -5.699 QT
105.412 -5.699 105.443 -5.699 QT
105.818 -5.699 106.076 -5.434 QT
106.333 -5.168 106.333 -4.793 QT
106.333 -4.434 106.076 -4.168 QT
105.818 -3.903 105.443 -3.903 QT
105.068 -3.903 104.802 -4.168 QT
104.537 -4.434 104.537 -4.793 QT
104.537 -5.528 104.974 -6.067 QT
105.412 -6.606 106.107 -6.887 QT
106.802 -7.168 107.505 -7.168 QT
108.021 -7.168 108.591 -7.012 QT
109.162 -6.856 109.622 -6.567 QT
110.083 -6.278 110.38 -5.832 QT
110.677 -5.387 110.677 -4.809 QT
110.677 -4.106 110.357 -3.496 QT
110.037 -2.887 109.482 -2.449 QT
108.927 -2.012 108.255 -1.793 QT
109.005 -1.653 109.669 -1.239 QT
110.333 -0.824 110.732 -0.176 QT
111.13 0.472 111.13 1.222 QT
111.13 2.16 110.615 2.918 QT
110.099 3.676 109.263 4.105 QT
108.427 4.535 107.505 4.535 QT
106.708 4.535 105.904 4.23 QT
105.099 3.926 104.591 3.324 QT
104.083 2.722 104.083 1.863 QT
104.083 1.441 104.365 1.16 QT
104.646 0.879 105.068 0.879 QT
105.333 0.879 105.568 1.011 QT
105.802 1.144 105.927 1.371 QT
106.052 1.597 106.052 1.863 QT
106.052 2.285 105.763 2.566 QT
105.474 2.847 105.068 2.847 QT
104.99 2.847 L
cp}def
f1160089
f
GR
GS
[0.75 0 0 0.75 0 0] CT
0.851 0.325 0.098 RC
1 LJ
0.667 LW
N
372.999 332.627 M
412.992 332.627 L
S
GR
GS
[0.75 0 0 0.75 0 0] CT
0.149 GC
10.0 ML
0.667 LW
N
369 345 M
369 299 L
532 299 L
532 345 L
cp
S
GR
%%Trailer
%%Pages: 1
%%EOF
