%!PS-Adobe-3.0 EPSF-3.0
%%Creator: (MATLAB, The Mathworks, Inc. Version 9.4.0.813654 \(R2018a\). Operating System: Linux)
%%Title: ./plot/DiscSystem/boxplot.eps
%%CreationDate: 2019-03-01T17:47:23
%%Pages: (atend)
%%BoundingBox:     1    20   311   299
%%LanguageLevel: 3
%%EndComments
%%BeginProlog
%%BeginResource: procset (Apache XML Graphics Std ProcSet) 1.2 0
%%Version: 1.2 0
%%Copyright: (Copyright 2001-2003,2010 The Apache Software Foundation. License terms: http://www.apache.org/licenses/LICENSE-2.0)
/bd{bind def}bind def
/ld{load def}bd
/GR/grestore ld
/GS/gsave ld
/RM/rmoveto ld
/C/curveto ld
/t/show ld
/L/lineto ld
/ML/setmiterlimit ld
/CT/concat ld
/f/fill ld
/N/newpath ld
/S/stroke ld
/CC/setcmykcolor ld
/A/ashow ld
/cp/closepath ld
/RC/setrgbcolor ld
/LJ/setlinejoin ld
/GC/setgray ld
/LW/setlinewidth ld
/M/moveto ld
/re {4 2 roll M
1 index 0 rlineto
0 exch rlineto
neg 0 rlineto
cp } bd
/_ctm matrix def
/_tm matrix def
/BT { _ctm currentmatrix pop matrix _tm copy pop 0 0 moveto } bd
/ET { _ctm setmatrix } bd
/iTm { _ctm setmatrix _tm concat } bd
/Tm { _tm astore pop iTm 0 0 moveto } bd
/ux 0.0 def
/uy 0.0 def
/F {
  /Tp exch def
  /Tf exch def
  Tf findfont Tp scalefont setfont
  /cf Tf def  /cs Tp def
} bd
/ULS {currentpoint /uy exch def /ux exch def} bd
/ULE {
  /Tcx currentpoint pop def
  gsave
  newpath
  cf findfont cs scalefont dup
  /FontMatrix get 0 get /Ts exch def /FontInfo get dup
  /UnderlinePosition get Ts mul /To exch def
  /UnderlineThickness get Ts mul /Tt exch def
  ux uy To add moveto  Tcx uy To add lineto
  Tt setlinewidth stroke
  grestore
} bd
/OLE {
  /Tcx currentpoint pop def
  gsave
  newpath
  cf findfont cs scalefont dup
  /FontMatrix get 0 get /Ts exch def /FontInfo get dup
  /UnderlinePosition get Ts mul /To exch def
  /UnderlineThickness get Ts mul /Tt exch def
  ux uy To add cs add moveto Tcx uy To add cs add lineto
  Tt setlinewidth stroke
  grestore
} bd
/SOE {
  /Tcx currentpoint pop def
  gsave
  newpath
  cf findfont cs scalefont dup
  /FontMatrix get 0 get /Ts exch def /FontInfo get dup
  /UnderlinePosition get Ts mul /To exch def
  /UnderlineThickness get Ts mul /Tt exch def
  ux uy To add cs 10 mul 26 idiv add moveto Tcx uy To add cs 10 mul 26 idiv add lineto
  Tt setlinewidth stroke
  grestore
} bd
/QT {
/Y22 exch store
/X22 exch store
/Y21 exch store
/X21 exch store
currentpoint
/Y21 load 2 mul add 3 div exch
/X21 load 2 mul add 3 div exch
/X21 load 2 mul /X22 load add 3 div
/Y21 load 2 mul /Y22 load add 3 div
/X22 load /Y22 load curveto
} bd
/SSPD {
dup length /d exch dict def
{
/v exch def
/k exch def
currentpagedevice k known {
/cpdv currentpagedevice k get def
v cpdv ne {
/upd false def
/nullv v type /nulltype eq def
/nullcpdv cpdv type /nulltype eq def
nullv nullcpdv or
{
/upd true def
} {
/sametype v type cpdv type eq def
sametype {
v type /arraytype eq {
/vlen v length def
/cpdvlen cpdv length def
vlen cpdvlen eq {
0 1 vlen 1 sub {
/i exch def
/obj v i get def
/cpdobj cpdv i get def
obj cpdobj ne {
/upd true def
exit
} if
} for
} {
/upd true def
} ifelse
} {
v type /dicttype eq {
v {
/dv exch def
/dk exch def
/cpddv cpdv dk get def
dv cpddv ne {
/upd true def
exit
} if
} forall
} {
/upd true def
} ifelse
} ifelse
} if
} ifelse
upd true eq {
d k v put
} if
} if
} if
} forall
d length 0 gt {
d setpagedevice
} if
} bd
/RE { % /NewFontName [NewEncodingArray] /FontName RE -
  findfont dup length dict begin
  {
    1 index /FID ne
    {def} {pop pop} ifelse
  } forall
  /Encoding exch def
  /FontName 1 index def
  currentdict definefont pop
  end
} bind def
%%EndResource
%%BeginResource: procset (Apache XML Graphics EPS ProcSet) 1.0 0
%%Version: 1.0 0
%%Copyright: (Copyright 2002-2003 The Apache Software Foundation. License terms: http://www.apache.org/licenses/LICENSE-2.0)
/BeginEPSF { %def
/b4_Inc_state save def         % Save state for cleanup
/dict_count countdictstack def % Count objects on dict stack
/op_count count 1 sub def      % Count objects on operand stack
userdict begin                 % Push userdict on dict stack
/showpage { } def              % Redefine showpage, { } = null proc
0 setgray 0 setlinecap         % Prepare graphics state
1 setlinewidth 0 setlinejoin
10 setmiterlimit [ ] 0 setdash newpath
/languagelevel where           % If level not equal to 1 then
{pop languagelevel             % set strokeadjust and
1 ne                           % overprint to their defaults.
{false setstrokeadjust false setoverprint
} if
} if
} bd
/EndEPSF { %def
count op_count sub {pop} repeat            % Clean up stacks
countdictstack dict_count sub {end} repeat
b4_Inc_state restore
} bd
%%EndResource
%FOPBeginFontDict
%%IncludeResource: font Courier-Oblique
%%IncludeResource: font Courier-BoldOblique
%%IncludeResource: font Courier-Bold
%%IncludeResource: font ZapfDingbats
%%IncludeResource: font Symbol
%%IncludeResource: font Helvetica
%%IncludeResource: font Helvetica-Oblique
%%IncludeResource: font Helvetica-Bold
%%IncludeResource: font Helvetica-BoldOblique
%%IncludeResource: font Times-Roman
%%IncludeResource: font Times-Italic
%%IncludeResource: font Times-Bold
%%IncludeResource: font Times-BoldItalic
%%IncludeResource: font Courier
%FOPEndFontDict
%%BeginResource: encoding WinAnsiEncoding
/WinAnsiEncoding [
/.notdef /.notdef /.notdef /.notdef /.notdef
/.notdef /.notdef /.notdef /.notdef /.notdef
/.notdef /.notdef /.notdef /.notdef /.notdef
/.notdef /.notdef /.notdef /.notdef /.notdef
/.notdef /.notdef /.notdef /.notdef /.notdef
/.notdef /.notdef /.notdef /.notdef /.notdef
/.notdef /.notdef /space /exclam /quotedbl
/numbersign /dollar /percent /ampersand /quotesingle
/parenleft /parenright /asterisk /plus /comma
/hyphen /period /slash /zero /one
/two /three /four /five /six
/seven /eight /nine /colon /semicolon
/less /equal /greater /question /at
/A /B /C /D /E
/F /G /H /I /J
/K /L /M /N /O
/P /Q /R /S /T
/U /V /W /X /Y
/Z /bracketleft /backslash /bracketright /asciicircum
/underscore /quoteleft /a /b /c
/d /e /f /g /h
/i /j /k /l /m
/n /o /p /q /r
/s /t /u /v /w
/x /y /z /braceleft /bar
/braceright /asciitilde /bullet /Euro /bullet
/quotesinglbase /florin /quotedblbase /ellipsis /dagger
/daggerdbl /circumflex /perthousand /Scaron /guilsinglleft
/OE /bullet /Zcaron /bullet /bullet
/quoteleft /quoteright /quotedblleft /quotedblright /bullet
/endash /emdash /asciitilde /trademark /scaron
/guilsinglright /oe /bullet /zcaron /Ydieresis
/space /exclamdown /cent /sterling /currency
/yen /brokenbar /section /dieresis /copyright
/ordfeminine /guillemotleft /logicalnot /sfthyphen /registered
/macron /degree /plusminus /twosuperior /threesuperior
/acute /mu /paragraph /middot /cedilla
/onesuperior /ordmasculine /guillemotright /onequarter /onehalf
/threequarters /questiondown /Agrave /Aacute /Acircumflex
/Atilde /Adieresis /Aring /AE /Ccedilla
/Egrave /Eacute /Ecircumflex /Edieresis /Igrave
/Iacute /Icircumflex /Idieresis /Eth /Ntilde
/Ograve /Oacute /Ocircumflex /Otilde /Odieresis
/multiply /Oslash /Ugrave /Uacute /Ucircumflex
/Udieresis /Yacute /Thorn /germandbls /agrave
/aacute /acircumflex /atilde /adieresis /aring
/ae /ccedilla /egrave /eacute /ecircumflex
/edieresis /igrave /iacute /icircumflex /idieresis
/eth /ntilde /ograve /oacute /ocircumflex
/otilde /odieresis /divide /oslash /ugrave
/uacute /ucircumflex /udieresis /yacute /thorn
/ydieresis
] def
%%EndResource
%FOPBeginFontReencode
/Courier-Oblique findfont
dup length dict begin
  {1 index /FID ne {def} {pop pop} ifelse} forall
  /Encoding WinAnsiEncoding def
  currentdict
end
/Courier-Oblique exch definefont pop
/Courier-BoldOblique findfont
dup length dict begin
  {1 index /FID ne {def} {pop pop} ifelse} forall
  /Encoding WinAnsiEncoding def
  currentdict
end
/Courier-BoldOblique exch definefont pop
/Courier-Bold findfont
dup length dict begin
  {1 index /FID ne {def} {pop pop} ifelse} forall
  /Encoding WinAnsiEncoding def
  currentdict
end
/Courier-Bold exch definefont pop
/Helvetica findfont
dup length dict begin
  {1 index /FID ne {def} {pop pop} ifelse} forall
  /Encoding WinAnsiEncoding def
  currentdict
end
/Helvetica exch definefont pop
/Helvetica-Oblique findfont
dup length dict begin
  {1 index /FID ne {def} {pop pop} ifelse} forall
  /Encoding WinAnsiEncoding def
  currentdict
end
/Helvetica-Oblique exch definefont pop
/Helvetica-Bold findfont
dup length dict begin
  {1 index /FID ne {def} {pop pop} ifelse} forall
  /Encoding WinAnsiEncoding def
  currentdict
end
/Helvetica-Bold exch definefont pop
/Helvetica-BoldOblique findfont
dup length dict begin
  {1 index /FID ne {def} {pop pop} ifelse} forall
  /Encoding WinAnsiEncoding def
  currentdict
end
/Helvetica-BoldOblique exch definefont pop
/Times-Roman findfont
dup length dict begin
  {1 index /FID ne {def} {pop pop} ifelse} forall
  /Encoding WinAnsiEncoding def
  currentdict
end
/Times-Roman exch definefont pop
/Times-Italic findfont
dup length dict begin
  {1 index /FID ne {def} {pop pop} ifelse} forall
  /Encoding WinAnsiEncoding def
  currentdict
end
/Times-Italic exch definefont pop
/Times-Bold findfont
dup length dict begin
  {1 index /FID ne {def} {pop pop} ifelse} forall
  /Encoding WinAnsiEncoding def
  currentdict
end
/Times-Bold exch definefont pop
/Times-BoldItalic findfont
dup length dict begin
  {1 index /FID ne {def} {pop pop} ifelse} forall
  /Encoding WinAnsiEncoding def
  currentdict
end
/Times-BoldItalic exch definefont pop
/Courier findfont
dup length dict begin
  {1 index /FID ne {def} {pop pop} ifelse} forall
  /Encoding WinAnsiEncoding def
  currentdict
end
/Courier exch definefont pop
%FOPEndFontReencode
%%EndProlog
%%Page: 1 1
%%PageBoundingBox: 0 0 344 303
%%BeginPageSetup
[1 0 0 -1 0 303] CT
%%EndPageSetup
GS
[0.75 0 0 0.75 0 0] CT
1 GC
N
0 0 458 404 re
f
GR
GS
[0.75 0 0 0.75 0 0] CT
1 GC
N
0 0 458 404 re
f
GR
GS
[0.75 0 0 0.75 0 0] CT
1 GC
N
60 360 M
414 360 L
414 30 L
60 30 L
cp
f
GR
GS
[0.75 0 0 0.75 0 0] CT
0.873 GC
1 LJ
0.667 LW
N
237 360 M
237 30 L
S
GR
GS
[0.75 0 0 0.75 0 0] CT
0.873 GC
1 LJ
0.667 LW
N
414 360 M
60 360 L
S
GR
GS
[0.75 0 0 0.75 0 0] CT
0.873 GC
1 LJ
0.667 LW
N
414 327 M
60 327 L
S
GR
GS
[0.75 0 0 0.75 0 0] CT
0.873 GC
1 LJ
0.667 LW
N
414 294 M
60 294 L
S
GR
GS
[0.75 0 0 0.75 0 0] CT
0.873 GC
1 LJ
0.667 LW
N
414 261 M
60 261 L
S
GR
GS
[0.75 0 0 0.75 0 0] CT
0.873 GC
1 LJ
0.667 LW
N
414 228 M
60 228 L
S
GR
GS
[0.75 0 0 0.75 0 0] CT
0.873 GC
1 LJ
0.667 LW
N
414 195 M
60 195 L
S
GR
GS
[0.75 0 0 0.75 0 0] CT
0.873 GC
1 LJ
0.667 LW
N
414 162 M
60 162 L
S
GR
GS
[0.75 0 0 0.75 0 0] CT
0.873 GC
1 LJ
0.667 LW
N
414 129 M
60 129 L
S
GR
GS
[0.75 0 0 0.75 0 0] CT
0.873 GC
1 LJ
0.667 LW
N
414 96 M
60 96 L
S
GR
GS
[0.75 0 0 0.75 0 0] CT
0.873 GC
1 LJ
0.667 LW
N
414 63 M
60 63 L
S
GR
GS
[0.75 0 0 0.75 0 0] CT
0.873 GC
1 LJ
0.667 LW
N
414 30 M
60 30 L
S
GR
GS
[0.75 0 0 0.75 0 0] CT
0.149 GC
2 setlinecap
1 LJ
0.667 LW
N
60 360 M
414 360 L
S
GR
GS
[0.75 0 0 0.75 0 0] CT
0.149 GC
2 setlinecap
1 LJ
0.667 LW
N
60 30 M
414 30 L
S
GR
GS
[0.75 0 0 0.75 0 0] CT
0.149 GC
2 setlinecap
1 LJ
0.667 LW
N
237 360 M
237 356.47 L
S
GR
GS
[0.75 0 0 0.75 0 0] CT
0.149 GC
2 setlinecap
1 LJ
0.667 LW
N
237 30 M
237 33.53 L
S
GR
GS
[0.75 0 0 0.75 177.75 274.00001] CT
0.149 GC
/Helvetica 13.333 F
GS
[1 0 0 1 0 0] CT
-4.5 12 moveto 
1 -1 scale
(1) t 
GR
GR
GS
[0.75 0 0 0.75 0 0] CT
0.149 GC
2 setlinecap
1 LJ
0.667 LW
N
60 360 M
60 30 L
S
GR
GS
[0.75 0 0 0.75 0 0] CT
0.149 GC
2 setlinecap
1 LJ
0.667 LW
N
414 360 M
414 30 L
S
GR
GS
[0.75 0 0 0.75 0 0] CT
0.149 GC
2 setlinecap
1 LJ
0.667 LW
N
60 360 M
63.53 360 L
S
GR
GS
[0.75 0 0 0.75 0 0] CT
0.149 GC
2 setlinecap
1 LJ
0.667 LW
N
60 327 M
63.53 327 L
S
GR
GS
[0.75 0 0 0.75 0 0] CT
0.149 GC
2 setlinecap
1 LJ
0.667 LW
N
60 294 M
63.53 294 L
S
GR
GS
[0.75 0 0 0.75 0 0] CT
0.149 GC
2 setlinecap
1 LJ
0.667 LW
N
60 261 M
63.53 261 L
S
GR
GS
[0.75 0 0 0.75 0 0] CT
0.149 GC
2 setlinecap
1 LJ
0.667 LW
N
60 228 M
63.53 228 L
S
GR
GS
[0.75 0 0 0.75 0 0] CT
0.149 GC
2 setlinecap
1 LJ
0.667 LW
N
60 195 M
63.53 195 L
S
GR
GS
[0.75 0 0 0.75 0 0] CT
0.149 GC
2 setlinecap
1 LJ
0.667 LW
N
60 162 M
63.53 162 L
S
GR
GS
[0.75 0 0 0.75 0 0] CT
0.149 GC
2 setlinecap
1 LJ
0.667 LW
N
60 129 M
63.53 129 L
S
GR
GS
[0.75 0 0 0.75 0 0] CT
0.149 GC
2 setlinecap
1 LJ
0.667 LW
N
60 96 M
63.53 96 L
S
GR
GS
[0.75 0 0 0.75 0 0] CT
0.149 GC
2 setlinecap
1 LJ
0.667 LW
N
60 63 M
63.53 63 L
S
GR
GS
[0.75 0 0 0.75 0 0] CT
0.149 GC
2 setlinecap
1 LJ
0.667 LW
N
60 30 M
63.53 30 L
S
GR
GS
[0.75 0 0 0.75 0 0] CT
0.149 GC
2 setlinecap
1 LJ
0.667 LW
N
414 360 M
410.47 360 L
S
GR
GS
[0.75 0 0 0.75 0 0] CT
0.149 GC
2 setlinecap
1 LJ
0.667 LW
N
414 327 M
410.47 327 L
S
GR
GS
[0.75 0 0 0.75 0 0] CT
0.149 GC
2 setlinecap
1 LJ
0.667 LW
N
414 294 M
410.47 294 L
S
GR
GS
[0.75 0 0 0.75 0 0] CT
0.149 GC
2 setlinecap
1 LJ
0.667 LW
N
414 261 M
410.47 261 L
S
GR
GS
[0.75 0 0 0.75 0 0] CT
0.149 GC
2 setlinecap
1 LJ
0.667 LW
N
414 228 M
410.47 228 L
S
GR
GS
[0.75 0 0 0.75 0 0] CT
0.149 GC
2 setlinecap
1 LJ
0.667 LW
N
414 195 M
410.47 195 L
S
GR
GS
[0.75 0 0 0.75 0 0] CT
0.149 GC
2 setlinecap
1 LJ
0.667 LW
N
414 162 M
410.47 162 L
S
GR
GS
[0.75 0 0 0.75 0 0] CT
0.149 GC
2 setlinecap
1 LJ
0.667 LW
N
414 129 M
410.47 129 L
S
GR
GS
[0.75 0 0 0.75 0 0] CT
0.149 GC
2 setlinecap
1 LJ
0.667 LW
N
414 96 M
410.47 96 L
S
GR
GS
[0.75 0 0 0.75 0 0] CT
0.149 GC
2 setlinecap
1 LJ
0.667 LW
N
414 63 M
410.47 63 L
S
GR
GS
[0.75 0 0 0.75 0 0] CT
0.149 GC
2 setlinecap
1 LJ
0.667 LW
N
414 30 M
410.47 30 L
S
GR
GS
[0.75 0 0 0.75 41 270] CT
0.149 GC
/Helvetica 13.333 F
GS
[1 0 0 1 0 0] CT
-9 5 moveto 
1 -1 scale
(0) t 
GR
GR
GS
[0.75 0 0 0.75 41 245.25] CT
0.149 GC
/Helvetica 13.333 F
GS
[1 0 0 1 0 0] CT
-29 5 moveto 
1 -1 scale
(0.02) t 
GR
GR
GS
[0.75 0 0 0.75 41 220.5] CT
0.149 GC
/Helvetica 13.333 F
GS
[1 0 0 1 0 0] CT
-29 5 moveto 
1 -1 scale
(0.04) t 
GR
GR
GS
[0.75 0 0 0.75 41 195.75] CT
0.149 GC
/Helvetica 13.333 F
GS
[1 0 0 1 0 0] CT
-29 5 moveto 
1 -1 scale
(0.06) t 
GR
GR
GS
[0.75 0 0 0.75 41 171] CT
0.149 GC
/Helvetica 13.333 F
GS
[1 0 0 1 0 0] CT
-29 5 moveto 
1 -1 scale
(0.08) t 
GR
GR
GS
[0.75 0 0 0.75 41 146.25] CT
0.149 GC
/Helvetica 13.333 F
GS
[1 0 0 1 0 0] CT
-21 5 moveto 
1 -1 scale
(0.1) t 
GR
GR
GS
[0.75 0 0 0.75 41 121.5] CT
0.149 GC
/Helvetica 13.333 F
GS
[1 0 0 1 0 0] CT
-29 5 moveto 
1 -1 scale
(0.12) t 
GR
GR
GS
[0.75 0 0 0.75 41 96.75] CT
0.149 GC
/Helvetica 13.333 F
GS
[1 0 0 1 0 0] CT
-29 5 moveto 
1 -1 scale
(0.14) t 
GR
GR
GS
[0.75 0 0 0.75 41 72.00001] CT
0.149 GC
/Helvetica 13.333 F
GS
[1 0 0 1 0 0] CT
-29 5 moveto 
1 -1 scale
(0.16) t 
GR
GR
GS
[0.75 0 0 0.75 41 47.24999] CT
0.149 GC
/Helvetica 13.333 F
GS
[1 0 0 1 0 0] CT
-29 5 moveto 
1 -1 scale
(0.18) t 
GR
GR
GS
[0.75 0 0 0.75 41 22.5] CT
0.149 GC
/Helvetica 13.333 F
GS
[1 0 0 1 0 0] CT
-21 5 moveto 
1 -1 scale
(0.2) t 
GR
GR
GS
[0 -0.75 0.75 0 17 146.24987] CT
0.149 GC
N
-75.576 -8.751 M
-74.919 -7.923 -73.943 -7.447 QT
-72.966 -6.97 -71.919 -6.97 QT
-71.044 -6.97 -70.294 -7.322 QT
-69.544 -7.673 -68.982 -8.29 QT
-68.419 -8.908 -68.115 -9.697 QT
-67.81 -10.486 -67.81 -11.361 QT
-67.81 -11.501 -67.654 -11.501 QT
-67.419 -11.501 L
-67.263 -11.501 -67.263 -11.329 QT
-67.263 -10.329 -67.646 -9.408 QT
-68.029 -8.486 -68.724 -7.783 QT
-69.419 -7.079 -70.326 -6.689 QT
-71.232 -6.298 -72.216 -6.298 QT
-73.576 -6.298 -74.794 -6.853 QT
-76.013 -7.408 -76.919 -8.369 QT
-77.826 -9.329 -78.334 -10.587 QT
-78.841 -11.845 -78.841 -13.22 QT
-78.841 -14.579 -78.334 -15.837 QT
-77.826 -17.095 -76.919 -18.064 QT
-76.013 -19.033 -74.794 -19.572 QT
-73.576 -20.111 -72.216 -20.111 QT
-71.232 -20.111 -70.341 -19.689 QT
-69.451 -19.267 -68.794 -18.501 QT
-67.685 -20.064 L
-67.576 -20.111 -67.56 -20.111 QT
-67.419 -20.111 L
-67.357 -20.111 -67.31 -20.064 QT
-67.263 -20.017 -67.263 -19.954 QT
-67.263 -14.829 L
-67.263 -14.658 -67.419 -14.658 QT
-67.763 -14.658 L
-67.935 -14.658 -67.935 -14.829 QT
-67.935 -15.376 -68.154 -16.056 QT
-68.373 -16.736 -68.709 -17.337 QT
-69.044 -17.939 -69.498 -18.408 QT
-70.56 -19.454 -71.951 -19.454 QT
-72.998 -19.454 -73.959 -18.978 QT
-74.919 -18.501 -75.576 -17.673 QT
-76.263 -16.783 -76.537 -15.642 QT
-76.81 -14.501 -76.81 -13.22 QT
-76.81 -11.923 -76.537 -10.783 QT
-76.263 -9.642 -75.576 -8.751 QT
cp
f
GR
GS
[0 -0.75 0.75 0 17 146.24987] CT
0.149 GC
N
-65.657 -8.579 M
-65.657 -9.72 -64.766 -10.431 QT
-63.875 -11.142 -62.633 -11.431 QT
-61.391 -11.72 -60.266 -11.72 QT
-60.266 -12.501 L
-60.266 -13.048 -60.508 -13.564 QT
-60.75 -14.079 -61.204 -14.408 QT
-61.657 -14.736 -62.204 -14.736 QT
-63.469 -14.736 -64.125 -14.173 QT
-63.766 -14.173 -63.524 -13.9 QT
-63.282 -13.626 -63.282 -13.267 QT
-63.282 -12.876 -63.555 -12.611 QT
-63.829 -12.345 -64.188 -12.345 QT
-64.579 -12.345 -64.844 -12.611 QT
-65.11 -12.876 -65.11 -13.267 QT
-65.11 -14.267 -64.204 -14.751 QT
-63.297 -15.236 -62.204 -15.236 QT
-61.438 -15.236 -60.657 -14.908 QT
-59.875 -14.579 -59.375 -13.97 QT
-58.875 -13.361 -58.875 -12.533 QT
-58.875 -8.267 L
-58.875 -7.892 -58.719 -7.579 QT
-58.563 -7.267 -58.235 -7.267 QT
-57.922 -7.267 -57.766 -7.579 QT
-57.61 -7.892 -57.61 -8.267 QT
-57.61 -9.47 L
-57.047 -9.47 L
-57.047 -8.267 L
-57.047 -7.829 -57.274 -7.447 QT
-57.5 -7.064 -57.875 -6.837 QT
-58.25 -6.611 -58.688 -6.611 QT
-59.235 -6.611 -59.641 -7.04 QT
-60.047 -7.47 -60.094 -8.064 QT
-60.454 -7.345 -61.133 -6.923 QT
-61.813 -6.501 -62.594 -6.501 QT
-63.329 -6.501 -64.024 -6.72 QT
-64.719 -6.939 -65.188 -7.392 QT
-65.657 -7.845 -65.657 -8.579 QT
cp
-64.125 -8.579 M
-64.125 -7.923 -63.633 -7.462 QT
-63.141 -7.001 -62.469 -7.001 QT
-61.86 -7.001 -61.36 -7.314 QT
-60.86 -7.626 -60.563 -8.15 QT
-60.266 -8.673 -60.266 -9.267 QT
-60.266 -11.236 L
-61.125 -11.236 -62.032 -10.954 QT
-62.938 -10.673 -63.532 -10.072 QT
-64.125 -9.47 -64.125 -8.579 QT
cp
f
GR
GS
[0 -0.75 0.75 0 17 146.24987] CT
0.149 GC
N
-56.511 -6.72 M
-56.511 -7.392 L
-55.855 -7.392 -55.441 -7.494 QT
-55.026 -7.595 -55.026 -7.986 QT
-55.026 -17.97 L
-55.026 -18.47 -55.175 -18.697 QT
-55.323 -18.923 -55.612 -18.978 QT
-55.901 -19.033 -56.511 -19.033 QT
-56.511 -19.704 L
-53.683 -19.908 L
-53.683 -7.986 L
-53.683 -7.595 -53.269 -7.494 QT
-52.855 -7.392 -52.214 -7.392 QT
-52.214 -6.72 L
-56.511 -6.72 L
cp
f
GR
GS
[0 -0.75 0.75 0 17 146.24987] CT
0.149 GC
N
-47.169 -6.501 M
-48.326 -6.501 -49.263 -7.103 QT
-50.201 -7.704 -50.74 -8.704 QT
-51.279 -9.704 -51.279 -10.814 QT
-51.279 -11.939 -50.74 -12.97 QT
-50.201 -14.001 -49.263 -14.619 QT
-48.326 -15.236 -47.169 -15.236 QT
-46.06 -15.236 -45.146 -14.798 QT
-44.232 -14.361 -44.232 -13.376 QT
-44.232 -13.001 -44.498 -12.728 QT
-44.763 -12.454 -45.138 -12.454 QT
-45.513 -12.454 -45.779 -12.728 QT
-46.044 -13.001 -46.044 -13.376 QT
-46.044 -13.704 -45.833 -13.954 QT
-45.623 -14.204 -45.31 -14.267 QT
-45.966 -14.673 -47.154 -14.673 QT
-48.06 -14.673 -48.615 -14.072 QT
-49.169 -13.47 -49.396 -12.579 QT
-49.623 -11.689 -49.623 -10.814 QT
-49.623 -9.908 -49.349 -9.048 QT
-49.076 -8.189 -48.466 -7.626 QT
-47.857 -7.064 -46.935 -7.064 QT
-46.044 -7.064 -45.412 -7.619 QT
-44.779 -8.173 -44.544 -9.064 QT
-44.544 -9.173 -44.404 -9.173 QT
-44.169 -9.173 L
-44.107 -9.173 -44.06 -9.119 QT
-44.013 -9.064 -44.013 -9.001 QT
-44.013 -8.954 L
-44.31 -7.829 -45.162 -7.165 QT
-46.013 -6.501 -47.169 -6.501 QT
cp
f
GR
GS
[0 -0.75 0.75 0 17 146.24987] CT
0.149 GC
N
-41.561 -8.986 M
-41.561 -13.173 L
-41.561 -13.689 -41.709 -13.915 QT
-41.857 -14.142 -42.147 -14.197 QT
-42.436 -14.251 -43.045 -14.251 QT
-43.045 -14.908 L
-40.17 -15.111 L
-40.17 -8.986 L
-40.17 -8.236 -40.061 -7.829 QT
-39.951 -7.423 -39.607 -7.212 QT
-39.264 -7.001 -38.498 -7.001 QT
-37.482 -7.001 -36.873 -7.861 QT
-36.264 -8.72 -36.264 -9.798 QT
-36.264 -13.173 L
-36.264 -13.689 -36.428 -13.915 QT
-36.592 -14.142 -36.873 -14.197 QT
-37.154 -14.251 -37.748 -14.251 QT
-37.748 -14.908 L
-34.889 -15.111 L
-34.889 -8.439 L
-34.889 -7.939 -34.732 -7.712 QT
-34.576 -7.486 -34.287 -7.439 QT
-33.998 -7.392 -33.404 -7.392 QT
-33.404 -6.72 L
-36.217 -6.501 L
-36.217 -8.111 L
-36.561 -7.392 -37.193 -6.947 QT
-37.826 -6.501 -38.592 -6.501 QT
-39.951 -6.501 -40.756 -7.087 QT
-41.561 -7.673 -41.561 -8.986 QT
cp
f
GR
GS
[0 -0.75 0.75 0 17 146.24987] CT
0.149 GC
N
-32.659 -6.72 M
-32.659 -7.392 L
-32.003 -7.392 -31.589 -7.494 QT
-31.175 -7.595 -31.175 -7.986 QT
-31.175 -17.97 L
-31.175 -18.47 -31.323 -18.697 QT
-31.471 -18.923 -31.761 -18.978 QT
-32.05 -19.033 -32.659 -19.033 QT
-32.659 -19.704 L
-29.831 -19.908 L
-29.831 -7.986 L
-29.831 -7.595 -29.417 -7.494 QT
-29.003 -7.392 -28.362 -7.392 QT
-28.362 -6.72 L
-32.659 -6.72 L
cp
f
GR
GS
[0 -0.75 0.75 0 17 146.24987] CT
0.149 GC
N
-27.286 -8.579 M
-27.286 -9.72 -26.396 -10.431 QT
-25.505 -11.142 -24.263 -11.431 QT
-23.021 -11.72 -21.896 -11.72 QT
-21.896 -12.501 L
-21.896 -13.048 -22.138 -13.564 QT
-22.38 -14.079 -22.833 -14.408 QT
-23.286 -14.736 -23.833 -14.736 QT
-25.099 -14.736 -25.755 -14.173 QT
-25.396 -14.173 -25.153 -13.9 QT
-24.911 -13.626 -24.911 -13.267 QT
-24.911 -12.876 -25.185 -12.611 QT
-25.458 -12.345 -25.818 -12.345 QT
-26.208 -12.345 -26.474 -12.611 QT
-26.739 -12.876 -26.739 -13.267 QT
-26.739 -14.267 -25.833 -14.751 QT
-24.927 -15.236 -23.833 -15.236 QT
-23.068 -15.236 -22.286 -14.908 QT
-21.505 -14.579 -21.005 -13.97 QT
-20.505 -13.361 -20.505 -12.533 QT
-20.505 -8.267 L
-20.505 -7.892 -20.349 -7.579 QT
-20.193 -7.267 -19.864 -7.267 QT
-19.552 -7.267 -19.396 -7.579 QT
-19.239 -7.892 -19.239 -8.267 QT
-19.239 -9.47 L
-18.677 -9.47 L
-18.677 -8.267 L
-18.677 -7.829 -18.903 -7.447 QT
-19.13 -7.064 -19.505 -6.837 QT
-19.88 -6.611 -20.318 -6.611 QT
-20.864 -6.611 -21.271 -7.04 QT
-21.677 -7.47 -21.724 -8.064 QT
-22.083 -7.345 -22.763 -6.923 QT
-23.443 -6.501 -24.224 -6.501 QT
-24.958 -6.501 -25.653 -6.72 QT
-26.349 -6.939 -26.818 -7.392 QT
-27.286 -7.845 -27.286 -8.579 QT
cp
-25.755 -8.579 M
-25.755 -7.923 -25.263 -7.462 QT
-24.771 -7.001 -24.099 -7.001 QT
-23.489 -7.001 -22.989 -7.314 QT
-22.489 -7.626 -22.193 -8.15 QT
-21.896 -8.673 -21.896 -9.267 QT
-21.896 -11.236 L
-22.755 -11.236 -23.661 -10.954 QT
-24.568 -10.673 -25.161 -10.072 QT
-25.755 -9.47 -25.755 -8.579 QT
cp
f
GR
GS
[0 -0.75 0.75 0 17 146.24987] CT
0.149 GC
N
-16.781 -9.001 M
-16.781 -14.251 L
-18.359 -14.251 L
-18.359 -14.736 L
-17.109 -14.736 -16.523 -15.892 QT
-15.937 -17.048 -15.937 -18.408 QT
-15.39 -18.408 L
-15.39 -14.908 L
-12.719 -14.908 L
-12.719 -14.251 L
-15.39 -14.251 L
-15.39 -9.033 L
-15.39 -8.251 -15.133 -7.658 QT
-14.875 -7.064 -14.187 -7.064 QT
-13.531 -7.064 -13.242 -7.689 QT
-12.953 -8.314 -12.953 -9.033 QT
-12.953 -10.158 L
-12.406 -10.158 L
-12.406 -9.001 L
-12.406 -8.408 -12.625 -7.829 QT
-12.844 -7.251 -13.273 -6.876 QT
-13.703 -6.501 -14.312 -6.501 QT
-15.453 -6.501 -16.117 -7.189 QT
-16.781 -7.876 -16.781 -9.001 QT
cp
f
GR
GS
[0 -0.75 0.75 0 17 146.24987] CT
0.149 GC
N
-10.881 -6.72 M
-10.881 -7.392 L
-10.225 -7.392 -9.811 -7.494 QT
-9.397 -7.595 -9.397 -7.986 QT
-9.397 -13.173 L
-9.397 -13.908 -9.678 -14.079 QT
-9.959 -14.251 -10.787 -14.251 QT
-10.787 -14.908 L
-8.053 -15.111 L
-8.053 -7.986 L
-8.053 -7.595 -7.694 -7.494 QT
-7.334 -7.392 -6.725 -7.392 QT
-6.725 -6.72 L
-10.881 -6.72 L
cp
-10.069 -18.376 M
-10.069 -18.798 -9.756 -19.111 QT
-9.444 -19.423 -9.022 -19.423 QT
-8.756 -19.423 -8.506 -19.29 QT
-8.256 -19.158 -8.116 -18.908 QT
-7.975 -18.658 -7.975 -18.376 QT
-7.975 -17.97 -8.295 -17.658 QT
-8.616 -17.345 -9.022 -17.345 QT
-9.444 -17.345 -9.756 -17.658 QT
-10.069 -17.97 -10.069 -18.376 QT
cp
f
GR
GS
[0 -0.75 0.75 0 17 146.24987] CT
0.149 GC
N
-1.524 -6.501 M
-2.665 -6.501 -3.641 -7.087 QT
-4.618 -7.673 -5.18 -8.642 QT
-5.743 -9.611 -5.743 -10.767 QT
-5.743 -11.642 -5.43 -12.447 QT
-5.118 -13.251 -4.54 -13.884 QT
-3.962 -14.517 -3.196 -14.876 QT
-2.43 -15.236 -1.524 -15.236 QT
-0.352 -15.236 0.609 -14.619 QT
1.57 -14.001 2.124 -12.97 QT
2.679 -11.939 2.679 -10.767 QT
2.679 -9.626 2.117 -8.65 QT
1.554 -7.673 0.578 -7.087 QT
-0.399 -6.501 -1.524 -6.501 QT
cp
-1.524 -7.064 M
-0.008 -7.064 0.507 -8.165 QT
1.023 -9.267 1.023 -10.986 QT
1.023 -11.939 0.921 -12.564 QT
0.82 -13.189 0.476 -13.704 QT
0.257 -14.017 -0.071 -14.251 QT
-0.399 -14.486 -0.766 -14.611 QT
-1.133 -14.736 -1.524 -14.736 QT
-2.118 -14.736 -2.649 -14.47 QT
-3.18 -14.204 -3.54 -13.704 QT
-3.883 -13.158 -3.985 -12.517 QT
-4.087 -11.876 -4.087 -10.986 QT
-4.087 -9.908 -3.899 -9.064 QT
-3.712 -8.22 -3.149 -7.642 QT
-2.587 -7.064 -1.524 -7.064 QT
cp
f
GR
GS
[0 -0.75 0.75 0 17 146.24987] CT
0.149 GC
N
3.622 -6.72 M
3.622 -7.392 L
4.278 -7.392 4.692 -7.494 QT
5.106 -7.595 5.106 -7.986 QT
5.106 -13.173 L
5.106 -13.689 4.958 -13.915 QT
4.809 -14.142 4.52 -14.197 QT
4.231 -14.251 3.622 -14.251 QT
3.622 -14.908 L
6.387 -15.111 L
6.387 -13.267 L
6.762 -14.079 7.512 -14.595 QT
8.262 -15.111 9.137 -15.111 QT
10.45 -15.111 11.114 -14.486 QT
11.778 -13.861 11.778 -12.548 QT
11.778 -7.986 L
11.778 -7.595 12.2 -7.494 QT
12.622 -7.392 13.262 -7.392 QT
13.262 -6.72 L
8.919 -6.72 L
8.919 -7.392 L
9.559 -7.392 9.981 -7.494 QT
10.403 -7.595 10.403 -7.986 QT
10.403 -12.501 L
10.403 -13.423 10.13 -14.025 QT
9.856 -14.626 9.028 -14.626 QT
7.919 -14.626 7.208 -13.744 QT
6.497 -12.861 6.497 -11.736 QT
6.497 -7.986 L
6.497 -7.595 6.919 -7.494 QT
7.341 -7.392 7.981 -7.392 QT
7.981 -6.72 L
3.622 -6.72 L
cp
f
GR
GS
[0 -0.75 0.75 0 17 146.24987] CT
0.149 GC
N
21.589 -9.001 M
21.589 -14.251 L
20.011 -14.251 L
20.011 -14.736 L
21.261 -14.736 21.847 -15.892 QT
22.433 -17.048 22.433 -18.408 QT
22.98 -18.408 L
22.98 -14.908 L
25.652 -14.908 L
25.652 -14.251 L
22.98 -14.251 L
22.98 -9.033 L
22.98 -8.251 23.238 -7.658 QT
23.496 -7.064 24.183 -7.064 QT
24.839 -7.064 25.128 -7.689 QT
25.418 -8.314 25.418 -9.033 QT
25.418 -10.158 L
25.964 -10.158 L
25.964 -9.001 L
25.964 -8.408 25.746 -7.829 QT
25.527 -7.251 25.097 -6.876 QT
24.668 -6.501 24.058 -6.501 QT
22.918 -6.501 22.253 -7.189 QT
21.589 -7.876 21.589 -9.001 QT
cp
f
GR
GS
[0 -0.75 0.75 0 17 146.24987] CT
0.149 GC
N
27.489 -6.72 M
27.489 -7.392 L
28.146 -7.392 28.56 -7.494 QT
28.974 -7.595 28.974 -7.986 QT
28.974 -13.173 L
28.974 -13.908 28.692 -14.079 QT
28.411 -14.251 27.583 -14.251 QT
27.583 -14.908 L
30.317 -15.111 L
30.317 -7.986 L
30.317 -7.595 30.677 -7.494 QT
31.036 -7.392 31.646 -7.392 QT
31.646 -6.72 L
27.489 -6.72 L
cp
28.302 -18.376 M
28.302 -18.798 28.614 -19.111 QT
28.927 -19.423 29.349 -19.423 QT
29.614 -19.423 29.864 -19.29 QT
30.114 -19.158 30.255 -18.908 QT
30.396 -18.658 30.396 -18.376 QT
30.396 -17.97 30.075 -17.658 QT
29.755 -17.345 29.349 -17.345 QT
28.927 -17.345 28.614 -17.658 QT
28.302 -17.97 28.302 -18.376 QT
cp
f
GR
GS
[0 -0.75 0.75 0 17 146.24987] CT
0.149 GC
N
32.659 -6.72 M
32.659 -7.392 L
33.315 -7.392 33.729 -7.494 QT
34.143 -7.595 34.143 -7.986 QT
34.143 -13.173 L
34.143 -13.689 33.995 -13.915 QT
33.846 -14.142 33.557 -14.197 QT
33.268 -14.251 32.659 -14.251 QT
32.659 -14.908 L
35.425 -15.111 L
35.425 -13.267 L
35.8 -14.079 36.55 -14.595 QT
37.3 -15.111 38.175 -15.111 QT
40.362 -15.111 40.737 -13.329 QT
41.128 -14.126 41.862 -14.619 QT
42.596 -15.111 43.456 -15.111 QT
44.331 -15.111 44.917 -14.837 QT
45.503 -14.564 45.8 -13.994 QT
46.096 -13.423 46.096 -12.548 QT
46.096 -7.986 L
46.096 -7.595 46.518 -7.494 QT
46.94 -7.392 47.581 -7.392 QT
47.581 -6.72 L
43.237 -6.72 L
43.237 -7.392 L
43.878 -7.392 44.3 -7.494 QT
44.721 -7.595 44.721 -7.986 QT
44.721 -12.501 L
44.721 -13.454 44.448 -14.04 QT
44.175 -14.626 43.346 -14.626 QT
42.253 -14.626 41.534 -13.744 QT
40.815 -12.861 40.815 -11.736 QT
40.815 -7.986 L
40.815 -7.595 41.237 -7.494 QT
41.659 -7.392 42.3 -7.392 QT
42.3 -6.72 L
37.956 -6.72 L
37.956 -7.392 L
38.596 -7.392 39.018 -7.494 QT
39.44 -7.595 39.44 -7.986 QT
39.44 -12.501 L
39.44 -13.423 39.167 -14.025 QT
38.893 -14.626 38.065 -14.626 QT
36.956 -14.626 36.245 -13.744 QT
35.534 -12.861 35.534 -11.736 QT
35.534 -7.986 L
35.534 -7.595 35.956 -7.494 QT
36.378 -7.392 37.018 -7.392 QT
37.018 -6.72 L
32.659 -6.72 L
cp
f
GR
GS
[0 -0.75 0.75 0 17 146.24987] CT
0.149 GC
N
52.386 -6.501 M
51.23 -6.501 50.261 -7.111 QT
49.293 -7.72 48.738 -8.736 QT
48.183 -9.751 48.183 -10.892 QT
48.183 -12.001 48.691 -13.001 QT
49.199 -14.001 50.097 -14.619 QT
50.996 -15.236 52.121 -15.236 QT
52.98 -15.236 53.629 -14.947 QT
54.277 -14.658 54.691 -14.134 QT
55.105 -13.611 55.324 -12.908 QT
55.543 -12.204 55.543 -11.361 QT
55.543 -11.111 55.34 -11.111 QT
49.84 -11.111 L
49.84 -10.908 L
49.84 -9.329 50.472 -8.197 QT
51.105 -7.064 52.558 -7.064 QT
53.136 -7.064 53.629 -7.322 QT
54.121 -7.579 54.488 -8.048 QT
54.855 -8.517 54.996 -9.033 QT
55.011 -9.111 55.058 -9.158 QT
55.105 -9.204 55.183 -9.204 QT
55.34 -9.204 L
55.543 -9.204 55.543 -8.97 QT
55.261 -7.892 54.371 -7.197 QT
53.48 -6.501 52.386 -6.501 QT
cp
49.855 -11.579 M
54.199 -11.579 L
54.199 -12.298 53.996 -13.033 QT
53.793 -13.767 53.332 -14.251 QT
52.871 -14.736 52.121 -14.736 QT
51.043 -14.736 50.449 -13.728 QT
49.855 -12.72 49.855 -11.579 QT
cp
f
GR
GS
[0 -0.75 0.75 0 17 146.24987] CT
0.149 GC
N
64.421 -1.97 M
64.421 -20.97 L
67.014 -20.97 L
67.014 -20.204 L
65.171 -20.204 L
65.171 -2.736 L
67.014 -2.736 L
67.014 -1.97 L
64.421 -1.97 L
cp
f
GR
GS
[0 -0.75 0.75 0 17 146.24987] CT
0.149 GC
N
67.981 -6.658 M
67.981 -9.767 L
67.981 -9.908 68.153 -9.908 QT
68.387 -9.908 L
68.496 -9.908 68.528 -9.767 QT
69.059 -7.001 71.09 -7.001 QT
71.996 -7.001 72.606 -7.415 QT
73.215 -7.829 73.215 -8.673 QT
73.215 -9.283 72.739 -9.72 QT
72.262 -10.158 71.621 -10.314 QT
70.34 -10.564 L
69.699 -10.704 69.176 -10.994 QT
68.653 -11.283 68.317 -11.759 QT
67.981 -12.236 67.981 -12.861 QT
67.981 -13.704 68.426 -14.236 QT
68.871 -14.767 69.574 -15.001 QT
70.278 -15.236 71.09 -15.236 QT
72.074 -15.236 72.793 -14.72 QT
73.34 -15.189 L
73.34 -15.236 73.434 -15.236 QT
73.574 -15.236 L
73.621 -15.236 73.668 -15.189 QT
73.715 -15.142 73.715 -15.079 QT
73.715 -12.595 L
73.715 -12.423 73.574 -12.423 QT
73.34 -12.423 L
73.168 -12.423 73.168 -12.595 QT
73.168 -13.579 72.621 -14.189 QT
72.074 -14.798 71.074 -14.798 QT
70.215 -14.798 69.59 -14.478 QT
68.965 -14.158 68.965 -13.392 QT
68.965 -12.861 69.418 -12.525 QT
69.871 -12.189 70.481 -12.033 QT
71.762 -11.798 L
72.418 -11.642 72.973 -11.29 QT
73.528 -10.939 73.864 -10.4 QT
74.199 -9.861 74.199 -9.189 QT
74.199 -8.501 73.957 -7.994 QT
73.715 -7.486 73.293 -7.158 QT
72.871 -6.829 72.301 -6.665 QT
71.731 -6.501 71.09 -6.501 QT
69.903 -6.501 69.059 -7.298 QT
68.371 -6.548 L
68.371 -6.501 68.262 -6.501 QT
68.153 -6.501 L
67.981 -6.501 67.981 -6.658 QT
cp
f
GR
GS
[0 -0.75 0.75 0 17 146.24987] CT
0.149 GC
N
75.141 -1.97 M
75.141 -2.736 L
76.984 -2.736 L
76.984 -20.204 L
75.141 -20.204 L
75.141 -20.97 L
77.75 -20.97 L
77.75 -1.97 L
75.141 -1.97 L
cp
f
GR
GS
[0.75 0 0 0.75 177.75016 19.875] CT
N
-110.437 -6.72 M
-110.437 -7.392 L
-108.483 -7.392 -108.483 -7.986 QT
-108.483 -18.423 L
-108.483 -19.033 -110.437 -19.033 QT
-110.437 -19.704 L
-103.452 -19.704 L
-102.499 -19.704 -101.515 -19.329 QT
-100.53 -18.954 -99.882 -18.212 QT
-99.233 -17.47 -99.233 -16.47 QT
-99.233 -15.314 -100.187 -14.525 QT
-101.14 -13.736 -102.405 -13.501 QT
-101.577 -13.501 -100.71 -13.048 QT
-99.843 -12.595 -99.288 -11.829 QT
-98.733 -11.064 -98.733 -10.22 QT
-98.733 -9.173 -99.343 -8.376 QT
-99.952 -7.579 -100.937 -7.15 QT
-101.921 -6.72 -102.921 -6.72 QT
-110.437 -6.72 L
cp
-106.827 -7.986 M
-106.827 -7.579 -106.601 -7.486 QT
-106.374 -7.392 -105.874 -7.392 QT
-103.452 -7.392 L
-102.718 -7.392 -102.077 -7.783 QT
-101.437 -8.173 -101.069 -8.822 QT
-100.702 -9.47 -100.702 -10.22 QT
-100.702 -10.939 -101.007 -11.634 QT
-101.312 -12.329 -101.882 -12.775 QT
-102.452 -13.22 -103.187 -13.22 QT
-106.827 -13.22 L
-106.827 -7.986 L
cp
-106.827 -13.72 M
-103.983 -13.72 L
-103.405 -13.72 -102.905 -13.923 QT
-102.405 -14.126 -101.999 -14.525 QT
-101.593 -14.923 -101.374 -15.415 QT
-101.155 -15.908 -101.155 -16.47 QT
-101.155 -16.97 -101.319 -17.423 QT
-101.483 -17.876 -101.796 -18.244 QT
-102.108 -18.611 -102.538 -18.822 QT
-102.968 -19.033 -103.452 -19.033 QT
-105.874 -19.033 L
-106.218 -19.033 -106.405 -19.001 QT
-106.593 -18.97 -106.71 -18.837 QT
-106.827 -18.704 -106.827 -18.423 QT
-106.827 -13.72 L
cp
f
GR
GS
[0.75 0 0 0.75 177.75016 19.875] CT
N
-93.121 -6.501 M
-94.261 -6.501 -95.238 -7.087 QT
-96.214 -7.673 -96.777 -8.642 QT
-97.339 -9.611 -97.339 -10.767 QT
-97.339 -11.642 -97.027 -12.447 QT
-96.714 -13.251 -96.136 -13.884 QT
-95.558 -14.517 -94.792 -14.876 QT
-94.027 -15.236 -93.121 -15.236 QT
-91.949 -15.236 -90.988 -14.619 QT
-90.027 -14.001 -89.472 -12.97 QT
-88.917 -11.939 -88.917 -10.767 QT
-88.917 -9.626 -89.48 -8.65 QT
-90.042 -7.673 -91.019 -7.087 QT
-91.996 -6.501 -93.121 -6.501 QT
cp
-93.121 -7.064 M
-91.605 -7.064 -91.089 -8.165 QT
-90.574 -9.267 -90.574 -10.986 QT
-90.574 -11.939 -90.675 -12.564 QT
-90.777 -13.189 -91.121 -13.704 QT
-91.339 -14.017 -91.667 -14.251 QT
-91.996 -14.486 -92.363 -14.611 QT
-92.73 -14.736 -93.121 -14.736 QT
-93.714 -14.736 -94.246 -14.47 QT
-94.777 -14.204 -95.136 -13.704 QT
-95.48 -13.158 -95.582 -12.517 QT
-95.683 -11.876 -95.683 -10.986 QT
-95.683 -9.908 -95.496 -9.064 QT
-95.308 -8.22 -94.746 -7.642 QT
-94.183 -7.064 -93.121 -7.064 QT
cp
f
GR
GS
[0.75 0 0 0.75 177.75016 19.875] CT
N
-88.821 -6.72 M
-88.821 -7.392 L
-88.103 -7.392 -87.462 -7.673 QT
-86.821 -7.954 -86.368 -8.517 QT
-84.649 -10.704 L
-86.899 -13.626 L
-87.228 -14.048 -87.618 -14.15 QT
-88.009 -14.251 -88.728 -14.251 QT
-88.728 -14.908 L
-84.774 -14.908 L
-84.774 -14.251 L
-85.024 -14.251 -85.243 -14.134 QT
-85.462 -14.017 -85.462 -13.814 QT
-85.462 -13.736 -85.415 -13.626 QT
-83.884 -11.658 L
-82.743 -13.126 L
-82.509 -13.408 -82.509 -13.673 QT
-82.509 -13.908 -82.665 -14.079 QT
-82.821 -14.251 -83.071 -14.251 QT
-83.071 -14.908 L
-79.571 -14.908 L
-79.571 -14.251 L
-80.306 -14.251 -80.954 -13.962 QT
-81.603 -13.673 -82.04 -13.126 QT
-83.54 -11.204 L
-81.118 -7.986 L
-80.759 -7.579 -80.368 -7.486 QT
-79.978 -7.392 -79.243 -7.392 QT
-79.243 -6.72 L
-83.196 -6.72 L
-83.196 -7.392 L
-82.962 -7.392 -82.751 -7.501 QT
-82.54 -7.611 -82.54 -7.829 QT
-82.54 -7.908 -82.603 -7.986 QT
-84.306 -10.251 L
-85.665 -8.517 L
-85.884 -8.267 -85.884 -7.954 QT
-85.884 -7.72 -85.728 -7.556 QT
-85.571 -7.392 -85.353 -7.392 QT
-85.353 -6.72 L
-88.821 -6.72 L
cp
f
GR
GS
[0.75 0 0 0.75 177.75016 19.875] CT
N
-78.719 -3.033 M
-78.719 -3.689 L
-78.063 -3.689 -77.649 -3.806 QT
-77.235 -3.923 -77.235 -4.314 QT
-77.235 -13.47 L
-77.235 -13.986 -77.602 -14.119 QT
-77.969 -14.251 -78.719 -14.251 QT
-78.719 -14.908 L
-75.907 -15.111 L
-75.907 -13.939 L
-75.376 -14.517 -74.688 -14.814 QT
-74.001 -15.111 -73.219 -15.111 QT
-72.094 -15.111 -71.196 -14.509 QT
-70.298 -13.908 -69.79 -12.915 QT
-69.282 -11.923 -69.282 -10.814 QT
-69.282 -9.673 -69.844 -8.681 QT
-70.407 -7.689 -71.376 -7.095 QT
-72.344 -6.501 -73.501 -6.501 QT
-74.891 -6.501 -75.844 -7.626 QT
-75.844 -4.314 L
-75.844 -3.923 -75.423 -3.806 QT
-75.001 -3.689 -74.36 -3.689 QT
-74.36 -3.033 L
-78.719 -3.033 L
cp
-75.844 -8.564 M
-75.516 -7.892 -74.923 -7.447 QT
-74.329 -7.001 -73.626 -7.001 QT
-72.954 -7.001 -72.454 -7.361 QT
-71.954 -7.72 -71.61 -8.314 QT
-71.266 -8.908 -71.102 -9.556 QT
-70.938 -10.204 -70.938 -10.814 QT
-70.938 -11.579 -71.212 -12.47 QT
-71.485 -13.361 -72.048 -13.962 QT
-72.61 -14.564 -73.407 -14.564 QT
-74.173 -14.564 -74.821 -14.173 QT
-75.469 -13.783 -75.844 -13.111 QT
-75.844 -8.564 L
cp
f
GR
GS
[0.75 0 0 0.75 177.75016 19.875] CT
N
-68.255 -6.72 M
-68.255 -7.392 L
-67.599 -7.392 -67.185 -7.494 QT
-66.771 -7.595 -66.771 -7.986 QT
-66.771 -17.97 L
-66.771 -18.47 -66.919 -18.697 QT
-67.068 -18.923 -67.357 -18.978 QT
-67.646 -19.033 -68.255 -19.033 QT
-68.255 -19.704 L
-65.427 -19.908 L
-65.427 -7.986 L
-65.427 -7.595 -65.013 -7.494 QT
-64.599 -7.392 -63.958 -7.392 QT
-63.958 -6.72 L
-68.255 -6.72 L
cp
f
GR
GS
[0.75 0 0 0.75 177.75016 19.875] CT
N
-58.898 -6.501 M
-60.039 -6.501 -61.015 -7.087 QT
-61.992 -7.673 -62.554 -8.642 QT
-63.117 -9.611 -63.117 -10.767 QT
-63.117 -11.642 -62.804 -12.447 QT
-62.492 -13.251 -61.914 -13.884 QT
-61.336 -14.517 -60.57 -14.876 QT
-59.804 -15.236 -58.898 -15.236 QT
-57.726 -15.236 -56.765 -14.619 QT
-55.804 -14.001 -55.25 -12.97 QT
-54.695 -11.939 -54.695 -10.767 QT
-54.695 -9.626 -55.258 -8.65 QT
-55.82 -7.673 -56.797 -7.087 QT
-57.773 -6.501 -58.898 -6.501 QT
cp
-58.898 -7.064 M
-57.383 -7.064 -56.867 -8.165 QT
-56.351 -9.267 -56.351 -10.986 QT
-56.351 -11.939 -56.453 -12.564 QT
-56.554 -13.189 -56.898 -13.704 QT
-57.117 -14.017 -57.445 -14.251 QT
-57.773 -14.486 -58.14 -14.611 QT
-58.508 -14.736 -58.898 -14.736 QT
-59.492 -14.736 -60.023 -14.47 QT
-60.554 -14.204 -60.914 -13.704 QT
-61.258 -13.158 -61.359 -12.517 QT
-61.461 -11.876 -61.461 -10.986 QT
-61.461 -9.908 -61.273 -9.064 QT
-61.086 -8.22 -60.523 -7.642 QT
-59.961 -7.064 -58.898 -7.064 QT
cp
f
GR
GS
[0.75 0 0 0.75 177.75016 19.875] CT
N
-52.377 -9.001 M
-52.377 -14.251 L
-53.956 -14.251 L
-53.956 -14.736 L
-52.706 -14.736 -52.12 -15.892 QT
-51.534 -17.048 -51.534 -18.408 QT
-50.987 -18.408 L
-50.987 -14.908 L
-48.315 -14.908 L
-48.315 -14.251 L
-50.987 -14.251 L
-50.987 -9.033 L
-50.987 -8.251 -50.729 -7.658 QT
-50.471 -7.064 -49.784 -7.064 QT
-49.127 -7.064 -48.838 -7.689 QT
-48.549 -8.314 -48.549 -9.033 QT
-48.549 -10.158 L
-48.002 -10.158 L
-48.002 -9.001 L
-48.002 -8.408 -48.221 -7.829 QT
-48.44 -7.251 -48.87 -6.876 QT
-49.299 -6.501 -49.909 -6.501 QT
-51.049 -6.501 -51.713 -7.189 QT
-52.377 -7.876 -52.377 -9.001 QT
cp
f
GR
GS
[0.75 0 0 0.75 177.75016 19.875] CT
N
-36.083 -6.501 M
-37.224 -6.501 -38.201 -7.087 QT
-39.177 -7.673 -39.74 -8.642 QT
-40.302 -9.611 -40.302 -10.767 QT
-40.302 -11.642 -39.99 -12.447 QT
-39.677 -13.251 -39.099 -13.884 QT
-38.521 -14.517 -37.755 -14.876 QT
-36.99 -15.236 -36.083 -15.236 QT
-34.912 -15.236 -33.951 -14.619 QT
-32.99 -14.001 -32.435 -12.97 QT
-31.88 -11.939 -31.88 -10.767 QT
-31.88 -9.626 -32.443 -8.65 QT
-33.005 -7.673 -33.982 -7.087 QT
-34.958 -6.501 -36.083 -6.501 QT
cp
-36.083 -7.064 M
-34.568 -7.064 -34.052 -8.165 QT
-33.537 -9.267 -33.537 -10.986 QT
-33.537 -11.939 -33.638 -12.564 QT
-33.74 -13.189 -34.083 -13.704 QT
-34.302 -14.017 -34.63 -14.251 QT
-34.958 -14.486 -35.326 -14.611 QT
-35.693 -14.736 -36.083 -14.736 QT
-36.677 -14.736 -37.208 -14.47 QT
-37.74 -14.204 -38.099 -13.704 QT
-38.443 -13.158 -38.544 -12.517 QT
-38.646 -11.876 -38.646 -10.986 QT
-38.646 -9.908 -38.458 -9.064 QT
-38.271 -8.22 -37.708 -7.642 QT
-37.146 -7.064 -36.083 -7.064 QT
cp
f
GR
GS
[0.75 0 0 0.75 177.75016 19.875] CT
N
-30.891 -6.72 M
-30.891 -7.392 L
-30.25 -7.392 -29.828 -7.494 QT
-29.406 -7.595 -29.406 -7.986 QT
-29.406 -14.251 L
-30.875 -14.251 L
-30.875 -14.908 L
-29.406 -14.908 L
-29.406 -17.189 L
-29.406 -17.798 -29.156 -18.329 QT
-28.906 -18.861 -28.477 -19.259 QT
-28.047 -19.658 -27.484 -19.884 QT
-26.922 -20.111 -26.313 -20.111 QT
-25.672 -20.111 -25.156 -19.736 QT
-24.641 -19.361 -24.641 -18.72 QT
-24.641 -18.361 -24.891 -18.119 QT
-25.141 -17.876 -25.5 -17.876 QT
-25.859 -17.876 -26.117 -18.119 QT
-26.375 -18.361 -26.375 -18.72 QT
-26.375 -19.314 -25.859 -19.517 QT
-26.172 -19.626 -26.406 -19.626 QT
-26.969 -19.626 -27.359 -19.228 QT
-27.75 -18.829 -27.945 -18.267 QT
-28.141 -17.704 -28.141 -17.142 QT
-28.141 -14.908 L
-25.953 -14.908 L
-25.953 -14.251 L
-28.078 -14.251 L
-28.078 -7.986 L
-28.078 -7.595 -27.523 -7.494 QT
-26.969 -7.392 -26.234 -7.392 QT
-26.234 -6.72 L
-30.891 -6.72 L
cp
f
GR
GS
[0.75 0 0 0.75 177.75016 19.875] CT
N
-14.84 -6.501 M
-15.996 -6.501 -16.933 -7.103 QT
-17.871 -7.704 -18.41 -8.704 QT
-18.949 -9.704 -18.949 -10.814 QT
-18.949 -11.939 -18.41 -12.97 QT
-17.871 -14.001 -16.933 -14.619 QT
-15.996 -15.236 -14.84 -15.236 QT
-13.73 -15.236 -12.816 -14.798 QT
-11.902 -14.361 -11.902 -13.376 QT
-11.902 -13.001 -12.168 -12.728 QT
-12.433 -12.454 -12.808 -12.454 QT
-13.183 -12.454 -13.449 -12.728 QT
-13.715 -13.001 -13.715 -13.376 QT
-13.715 -13.704 -13.504 -13.954 QT
-13.293 -14.204 -12.98 -14.267 QT
-13.637 -14.673 -14.824 -14.673 QT
-15.73 -14.673 -16.285 -14.072 QT
-16.84 -13.47 -17.066 -12.579 QT
-17.293 -11.689 -17.293 -10.814 QT
-17.293 -9.908 -17.019 -9.048 QT
-16.746 -8.189 -16.137 -7.626 QT
-15.527 -7.064 -14.605 -7.064 QT
-13.715 -7.064 -13.082 -7.619 QT
-12.449 -8.173 -12.215 -9.064 QT
-12.215 -9.173 -12.074 -9.173 QT
-11.84 -9.173 L
-11.777 -9.173 -11.73 -9.119 QT
-11.683 -9.064 -11.683 -9.001 QT
-11.683 -8.954 L
-11.98 -7.829 -12.832 -7.165 QT
-13.683 -6.501 -14.84 -6.501 QT
cp
f
GR
GS
[0.75 0 0 0.75 177.75016 19.875] CT
N
-10.512 -8.579 M
-10.512 -9.72 -9.622 -10.431 QT
-8.731 -11.142 -7.489 -11.431 QT
-6.247 -11.72 -5.122 -11.72 QT
-5.122 -12.501 L
-5.122 -13.048 -5.364 -13.564 QT
-5.606 -14.079 -6.059 -14.408 QT
-6.512 -14.736 -7.059 -14.736 QT
-8.325 -14.736 -8.981 -14.173 QT
-8.622 -14.173 -8.379 -13.9 QT
-8.137 -13.626 -8.137 -13.267 QT
-8.137 -12.876 -8.411 -12.611 QT
-8.684 -12.345 -9.043 -12.345 QT
-9.434 -12.345 -9.7 -12.611 QT
-9.965 -12.876 -9.965 -13.267 QT
-9.965 -14.267 -9.059 -14.751 QT
-8.153 -15.236 -7.059 -15.236 QT
-6.293 -15.236 -5.512 -14.908 QT
-4.731 -14.579 -4.231 -13.97 QT
-3.731 -13.361 -3.731 -12.533 QT
-3.731 -8.267 L
-3.731 -7.892 -3.575 -7.579 QT
-3.418 -7.267 -3.09 -7.267 QT
-2.778 -7.267 -2.622 -7.579 QT
-2.465 -7.892 -2.465 -8.267 QT
-2.465 -9.47 L
-1.903 -9.47 L
-1.903 -8.267 L
-1.903 -7.829 -2.129 -7.447 QT
-2.356 -7.064 -2.731 -6.837 QT
-3.106 -6.611 -3.543 -6.611 QT
-4.09 -6.611 -4.497 -7.04 QT
-4.903 -7.47 -4.95 -8.064 QT
-5.309 -7.345 -5.989 -6.923 QT
-6.668 -6.501 -7.45 -6.501 QT
-8.184 -6.501 -8.879 -6.72 QT
-9.575 -6.939 -10.043 -7.392 QT
-10.512 -7.845 -10.512 -8.579 QT
cp
-8.981 -8.579 M
-8.981 -7.923 -8.489 -7.462 QT
-7.997 -7.001 -7.325 -7.001 QT
-6.715 -7.001 -6.215 -7.314 QT
-5.715 -7.626 -5.418 -8.15 QT
-5.122 -8.673 -5.122 -9.267 QT
-5.122 -11.236 L
-5.981 -11.236 -6.887 -10.954 QT
-7.793 -10.673 -8.387 -10.072 QT
-8.981 -9.47 -8.981 -8.579 QT
cp
f
GR
GS
[0.75 0 0 0.75 177.75016 19.875] CT
N
-1.366 -6.72 M
-1.366 -7.392 L
-0.71 -7.392 -0.296 -7.494 QT
0.118 -7.595 0.118 -7.986 QT
0.118 -17.97 L
0.118 -18.47 -0.03 -18.697 QT
-0.179 -18.923 -0.468 -18.978 QT
-0.757 -19.033 -1.366 -19.033 QT
-1.366 -19.704 L
1.462 -19.908 L
1.462 -7.986 L
1.462 -7.595 1.876 -7.494 QT
2.29 -7.392 2.931 -7.392 QT
2.931 -6.72 L
-1.366 -6.72 L
cp
f
GR
GS
[0.75 0 0 0.75 177.75016 19.875] CT
N
7.975 -6.501 M
6.819 -6.501 5.881 -7.103 QT
4.944 -7.704 4.405 -8.704 QT
3.866 -9.704 3.866 -10.814 QT
3.866 -11.939 4.405 -12.97 QT
4.944 -14.001 5.881 -14.619 QT
6.819 -15.236 7.975 -15.236 QT
9.085 -15.236 9.999 -14.798 QT
10.913 -14.361 10.913 -13.376 QT
10.913 -13.001 10.647 -12.728 QT
10.381 -12.454 10.006 -12.454 QT
9.631 -12.454 9.366 -12.728 QT
9.1 -13.001 9.1 -13.376 QT
9.1 -13.704 9.311 -13.954 QT
9.522 -14.204 9.835 -14.267 QT
9.178 -14.673 7.991 -14.673 QT
7.085 -14.673 6.53 -14.072 QT
5.975 -13.47 5.749 -12.579 QT
5.522 -11.689 5.522 -10.814 QT
5.522 -9.908 5.795 -9.048 QT
6.069 -8.189 6.678 -7.626 QT
7.288 -7.064 8.21 -7.064 QT
9.1 -7.064 9.733 -7.619 QT
10.366 -8.173 10.6 -9.064 QT
10.6 -9.173 10.741 -9.173 QT
10.975 -9.173 L
11.038 -9.173 11.085 -9.119 QT
11.131 -9.064 11.131 -9.001 QT
11.131 -8.954 L
10.835 -7.829 9.983 -7.165 QT
9.131 -6.501 7.975 -6.501 QT
cp
f
GR
GS
[0.75 0 0 0.75 177.75016 19.875] CT
N
13.584 -8.986 M
13.584 -13.173 L
13.584 -13.689 13.436 -13.915 QT
13.287 -14.142 12.998 -14.197 QT
12.709 -14.251 12.1 -14.251 QT
12.1 -14.908 L
14.975 -15.111 L
14.975 -8.986 L
14.975 -8.236 15.084 -7.829 QT
15.193 -7.423 15.537 -7.212 QT
15.881 -7.001 16.646 -7.001 QT
17.662 -7.001 18.271 -7.861 QT
18.881 -8.72 18.881 -9.798 QT
18.881 -13.173 L
18.881 -13.689 18.717 -13.915 QT
18.553 -14.142 18.271 -14.197 QT
17.99 -14.251 17.396 -14.251 QT
17.396 -14.908 L
20.256 -15.111 L
20.256 -8.439 L
20.256 -7.939 20.412 -7.712 QT
20.568 -7.486 20.857 -7.439 QT
21.146 -7.392 21.74 -7.392 QT
21.74 -6.72 L
18.928 -6.501 L
18.928 -8.111 L
18.584 -7.392 17.951 -6.947 QT
17.318 -6.501 16.553 -6.501 QT
15.193 -6.501 14.389 -7.087 QT
13.584 -7.673 13.584 -8.986 QT
cp
f
GR
GS
[0.75 0 0 0.75 177.75016 19.875] CT
N
22.486 -6.72 M
22.486 -7.392 L
23.142 -7.392 23.556 -7.494 QT
23.97 -7.595 23.97 -7.986 QT
23.97 -17.97 L
23.97 -18.47 23.822 -18.697 QT
23.673 -18.923 23.384 -18.978 QT
23.095 -19.033 22.486 -19.033 QT
22.486 -19.704 L
25.314 -19.908 L
25.314 -7.986 L
25.314 -7.595 25.728 -7.494 QT
26.142 -7.392 26.782 -7.392 QT
26.782 -6.72 L
22.486 -6.72 L
cp
f
GR
GS
[0.75 0 0 0.75 177.75016 19.875] CT
N
27.858 -8.579 M
27.858 -9.72 28.749 -10.431 QT
29.64 -11.142 30.882 -11.431 QT
32.124 -11.72 33.249 -11.72 QT
33.249 -12.501 L
33.249 -13.048 33.007 -13.564 QT
32.765 -14.079 32.311 -14.408 QT
31.858 -14.736 31.311 -14.736 QT
30.046 -14.736 29.39 -14.173 QT
29.749 -14.173 29.991 -13.9 QT
30.233 -13.626 30.233 -13.267 QT
30.233 -12.876 29.96 -12.611 QT
29.686 -12.345 29.327 -12.345 QT
28.936 -12.345 28.671 -12.611 QT
28.405 -12.876 28.405 -13.267 QT
28.405 -14.267 29.311 -14.751 QT
30.218 -15.236 31.311 -15.236 QT
32.077 -15.236 32.858 -14.908 QT
33.64 -14.579 34.14 -13.97 QT
34.64 -13.361 34.64 -12.533 QT
34.64 -8.267 L
34.64 -7.892 34.796 -7.579 QT
34.952 -7.267 35.28 -7.267 QT
35.593 -7.267 35.749 -7.579 QT
35.905 -7.892 35.905 -8.267 QT
35.905 -9.47 L
36.468 -9.47 L
36.468 -8.267 L
36.468 -7.829 36.241 -7.447 QT
36.015 -7.064 35.64 -6.837 QT
35.265 -6.611 34.827 -6.611 QT
34.28 -6.611 33.874 -7.04 QT
33.468 -7.47 33.421 -8.064 QT
33.061 -7.345 32.382 -6.923 QT
31.702 -6.501 30.921 -6.501 QT
30.186 -6.501 29.491 -6.72 QT
28.796 -6.939 28.327 -7.392 QT
27.858 -7.845 27.858 -8.579 QT
cp
29.39 -8.579 M
29.39 -7.923 29.882 -7.462 QT
30.374 -7.001 31.046 -7.001 QT
31.655 -7.001 32.155 -7.314 QT
32.655 -7.626 32.952 -8.15 QT
33.249 -8.673 33.249 -9.267 QT
33.249 -11.236 L
32.39 -11.236 31.483 -10.954 QT
30.577 -10.673 29.983 -10.072 QT
29.39 -9.47 29.39 -8.579 QT
cp
f
GR
GS
[0.75 0 0 0.75 177.75016 19.875] CT
N
38.364 -9.001 M
38.364 -14.251 L
36.785 -14.251 L
36.785 -14.736 L
38.035 -14.736 38.621 -15.892 QT
39.207 -17.048 39.207 -18.408 QT
39.754 -18.408 L
39.754 -14.908 L
42.426 -14.908 L
42.426 -14.251 L
39.754 -14.251 L
39.754 -9.033 L
39.754 -8.251 40.012 -7.658 QT
40.27 -7.064 40.957 -7.064 QT
41.614 -7.064 41.903 -7.689 QT
42.192 -8.314 42.192 -9.033 QT
42.192 -10.158 L
42.739 -10.158 L
42.739 -9.001 L
42.739 -8.408 42.52 -7.829 QT
42.301 -7.251 41.871 -6.876 QT
41.442 -6.501 40.832 -6.501 QT
39.692 -6.501 39.028 -7.189 QT
38.364 -7.876 38.364 -9.001 QT
cp
f
GR
GS
[0.75 0 0 0.75 177.75016 19.875] CT
N
44.263 -6.72 M
44.263 -7.392 L
44.92 -7.392 45.334 -7.494 QT
45.748 -7.595 45.748 -7.986 QT
45.748 -13.173 L
45.748 -13.908 45.467 -14.079 QT
45.185 -14.251 44.357 -14.251 QT
44.357 -14.908 L
47.092 -15.111 L
47.092 -7.986 L
47.092 -7.595 47.451 -7.494 QT
47.81 -7.392 48.42 -7.392 QT
48.42 -6.72 L
44.263 -6.72 L
cp
45.076 -18.376 M
45.076 -18.798 45.388 -19.111 QT
45.701 -19.423 46.123 -19.423 QT
46.388 -19.423 46.638 -19.29 QT
46.888 -19.158 47.029 -18.908 QT
47.17 -18.658 47.17 -18.376 QT
47.17 -17.97 46.849 -17.658 QT
46.529 -17.345 46.123 -17.345 QT
45.701 -17.345 45.388 -17.658 QT
45.076 -17.97 45.076 -18.376 QT
cp
f
GR
GS
[0.75 0 0 0.75 177.75016 19.875] CT
N
53.621 -6.501 M
52.48 -6.501 51.503 -7.087 QT
50.527 -7.673 49.964 -8.642 QT
49.402 -9.611 49.402 -10.767 QT
49.402 -11.642 49.714 -12.447 QT
50.027 -13.251 50.605 -13.884 QT
51.183 -14.517 51.949 -14.876 QT
52.714 -15.236 53.621 -15.236 QT
54.792 -15.236 55.753 -14.619 QT
56.714 -14.001 57.269 -12.97 QT
57.824 -11.939 57.824 -10.767 QT
57.824 -9.626 57.261 -8.65 QT
56.699 -7.673 55.722 -7.087 QT
54.746 -6.501 53.621 -6.501 QT
cp
53.621 -7.064 M
55.136 -7.064 55.652 -8.165 QT
56.167 -9.267 56.167 -10.986 QT
56.167 -11.939 56.066 -12.564 QT
55.964 -13.189 55.621 -13.704 QT
55.402 -14.017 55.074 -14.251 QT
54.746 -14.486 54.378 -14.611 QT
54.011 -14.736 53.621 -14.736 QT
53.027 -14.736 52.496 -14.47 QT
51.964 -14.204 51.605 -13.704 QT
51.261 -13.158 51.16 -12.517 QT
51.058 -11.876 51.058 -10.986 QT
51.058 -9.908 51.246 -9.064 QT
51.433 -8.22 51.996 -7.642 QT
52.558 -7.064 53.621 -7.064 QT
cp
f
GR
GS
[0.75 0 0 0.75 177.75016 19.875] CT
N
58.766 -6.72 M
58.766 -7.392 L
59.423 -7.392 59.837 -7.494 QT
60.251 -7.595 60.251 -7.986 QT
60.251 -13.173 L
60.251 -13.689 60.102 -13.915 QT
59.954 -14.142 59.665 -14.197 QT
59.376 -14.251 58.766 -14.251 QT
58.766 -14.908 L
61.532 -15.111 L
61.532 -13.267 L
61.907 -14.079 62.657 -14.595 QT
63.407 -15.111 64.282 -15.111 QT
65.594 -15.111 66.259 -14.486 QT
66.923 -13.861 66.923 -12.548 QT
66.923 -7.986 L
66.923 -7.595 67.344 -7.494 QT
67.766 -7.392 68.407 -7.392 QT
68.407 -6.72 L
64.063 -6.72 L
64.063 -7.392 L
64.704 -7.392 65.126 -7.494 QT
65.548 -7.595 65.548 -7.986 QT
65.548 -12.501 L
65.548 -13.423 65.274 -14.025 QT
65.001 -14.626 64.173 -14.626 QT
63.063 -14.626 62.352 -13.744 QT
61.641 -12.861 61.641 -11.736 QT
61.641 -7.986 L
61.641 -7.595 62.063 -7.494 QT
62.485 -7.392 63.126 -7.392 QT
63.126 -6.72 L
58.766 -6.72 L
cp
f
GR
GS
[0.75 0 0 0.75 177.75016 19.875] CT
N
76.734 -9.001 M
76.734 -14.251 L
75.156 -14.251 L
75.156 -14.736 L
76.406 -14.736 76.992 -15.892 QT
77.578 -17.048 77.578 -18.408 QT
78.125 -18.408 L
78.125 -14.908 L
80.796 -14.908 L
80.796 -14.251 L
78.125 -14.251 L
78.125 -9.033 L
78.125 -8.251 78.382 -7.658 QT
78.64 -7.064 79.328 -7.064 QT
79.984 -7.064 80.273 -7.689 QT
80.562 -8.314 80.562 -9.033 QT
80.562 -10.158 L
81.109 -10.158 L
81.109 -9.001 L
81.109 -8.408 80.89 -7.829 QT
80.671 -7.251 80.242 -6.876 QT
79.812 -6.501 79.203 -6.501 QT
78.062 -6.501 77.398 -7.189 QT
76.734 -7.876 76.734 -9.001 QT
cp
f
GR
GS
[0.75 0 0 0.75 177.75016 19.875] CT
N
82.634 -6.72 M
82.634 -7.392 L
83.29 -7.392 83.704 -7.494 QT
84.118 -7.595 84.118 -7.986 QT
84.118 -13.173 L
84.118 -13.908 83.837 -14.079 QT
83.556 -14.251 82.728 -14.251 QT
82.728 -14.908 L
85.462 -15.111 L
85.462 -7.986 L
85.462 -7.595 85.821 -7.494 QT
86.181 -7.392 86.79 -7.392 QT
86.79 -6.72 L
82.634 -6.72 L
cp
83.446 -18.376 M
83.446 -18.798 83.759 -19.111 QT
84.071 -19.423 84.493 -19.423 QT
84.759 -19.423 85.009 -19.29 QT
85.259 -19.158 85.4 -18.908 QT
85.54 -18.658 85.54 -18.376 QT
85.54 -17.97 85.22 -17.658 QT
84.9 -17.345 84.493 -17.345 QT
84.071 -17.345 83.759 -17.658 QT
83.446 -17.97 83.446 -18.376 QT
cp
f
GR
GS
[0.75 0 0 0.75 177.75016 19.875] CT
N
87.803 -6.72 M
87.803 -7.392 L
88.46 -7.392 88.874 -7.494 QT
89.288 -7.595 89.288 -7.986 QT
89.288 -13.173 L
89.288 -13.689 89.139 -13.915 QT
88.991 -14.142 88.702 -14.197 QT
88.413 -14.251 87.803 -14.251 QT
87.803 -14.908 L
90.569 -15.111 L
90.569 -13.267 L
90.944 -14.079 91.694 -14.595 QT
92.444 -15.111 93.319 -15.111 QT
95.507 -15.111 95.882 -13.329 QT
96.272 -14.126 97.007 -14.619 QT
97.741 -15.111 98.6 -15.111 QT
99.475 -15.111 100.061 -14.837 QT
100.647 -14.564 100.944 -13.994 QT
101.241 -13.423 101.241 -12.548 QT
101.241 -7.986 L
101.241 -7.595 101.663 -7.494 QT
102.085 -7.392 102.725 -7.392 QT
102.725 -6.72 L
98.382 -6.72 L
98.382 -7.392 L
99.022 -7.392 99.444 -7.494 QT
99.866 -7.595 99.866 -7.986 QT
99.866 -12.501 L
99.866 -13.454 99.593 -14.04 QT
99.319 -14.626 98.491 -14.626 QT
97.397 -14.626 96.678 -13.744 QT
95.96 -12.861 95.96 -11.736 QT
95.96 -7.986 L
95.96 -7.595 96.382 -7.494 QT
96.803 -7.392 97.444 -7.392 QT
97.444 -6.72 L
93.1 -6.72 L
93.1 -7.392 L
93.741 -7.392 94.163 -7.494 QT
94.585 -7.595 94.585 -7.986 QT
94.585 -12.501 L
94.585 -13.423 94.311 -14.025 QT
94.038 -14.626 93.21 -14.626 QT
92.1 -14.626 91.389 -13.744 QT
90.678 -12.861 90.678 -11.736 QT
90.678 -7.986 L
90.678 -7.595 91.1 -7.494 QT
91.522 -7.392 92.163 -7.392 QT
92.163 -6.72 L
87.803 -6.72 L
cp
f
GR
GS
[0.75 0 0 0.75 177.75016 19.875] CT
N
107.531 -6.501 M
106.375 -6.501 105.406 -7.111 QT
104.437 -7.72 103.883 -8.736 QT
103.328 -9.751 103.328 -10.892 QT
103.328 -12.001 103.836 -13.001 QT
104.343 -14.001 105.242 -14.619 QT
106.14 -15.236 107.265 -15.236 QT
108.125 -15.236 108.773 -14.947 QT
109.422 -14.658 109.836 -14.134 QT
110.25 -13.611 110.468 -12.908 QT
110.687 -12.204 110.687 -11.361 QT
110.687 -11.111 110.484 -11.111 QT
104.984 -11.111 L
104.984 -10.908 L
104.984 -9.329 105.617 -8.197 QT
106.25 -7.064 107.703 -7.064 QT
108.281 -7.064 108.773 -7.322 QT
109.265 -7.579 109.633 -8.048 QT
110 -8.517 110.14 -9.033 QT
110.156 -9.111 110.203 -9.158 QT
110.25 -9.204 110.328 -9.204 QT
110.484 -9.204 L
110.687 -9.204 110.687 -8.97 QT
110.406 -7.892 109.515 -7.197 QT
108.625 -6.501 107.531 -6.501 QT
cp
105 -11.579 M
109.343 -11.579 L
109.343 -12.298 109.14 -13.033 QT
108.937 -13.767 108.476 -14.251 QT
108.015 -14.736 107.265 -14.736 QT
106.187 -14.736 105.593 -13.728 QT
105 -12.72 105 -11.579 QT
cp
f
GR
GS
[0.75 0 0 0.75 0 0] CT
[10 6] 0 setdash
2 LJ
0.667 LW
N
237 319.13 M
237 268.138 L
S
GR
GS
[0.75 0 0 0.75 0 0] CT
[10 6] 0 setdash
2 LJ
0.667 LW
N
237 337.42 M
237 328.541 L
S
GR
GS
[0.75 0 0 0.75 0 0] CT
1 LJ
0.667 LW
N
223.725 268.138 M
250.275 268.138 L
S
GR
GS
[0.75 0 0 0.75 0 0] CT
1 LJ
0.667 LW
N
223.725 337.42 M
250.275 337.42 L
S
GR
GS
[0.75 0 0 0.75 0 0] CT
0 0 1 RC
1 LJ
0.667 LW
N
210.45 328.541 M
210.45 319.13 L
263.55 319.13 L
263.55 328.541 L
210.45 328.541 L
S
GR
GS
[0.75 0 0 0.75 0 0] CT
1 0 0 RC
1 LJ
0.667 LW
N
210.45 326.267 M
263.55 326.267 L
S
GR
GS
[0.75 0 0 0.75 177.75 41.32981] CT
1 0 0 RC
10.0 ML
N
0 -4 M
0 4 L
-4 0 M
4 0 L
S
GR
GS
[0.75 0 0 0.75 204.3 244.70055] CT
N
1.047 2.785 M
1.047 2.535 1.109 2.316 QT
2.328 -2.574 L
0.547 -2.574 L
0.375 -2.574 0.375 -2.793 QT
0.438 -3.168 0.594 -3.168 QT
2.484 -3.168 L
3.156 -5.949 L
3.234 -6.168 3.43 -6.324 QT
3.625 -6.481 3.875 -6.481 QT
4.094 -6.481 4.242 -6.356 QT
4.391 -6.231 4.391 -6.012 QT
4.391 -5.965 4.383 -5.934 QT
4.375 -5.903 4.359 -5.871 QT
3.688 -3.168 L
5.438 -3.168 L
5.609 -3.168 5.609 -2.949 QT
5.609 -2.903 5.578 -2.801 QT
5.547 -2.699 5.508 -2.637 QT
5.469 -2.574 5.391 -2.574 QT
3.531 -2.574 L
2.313 2.347 L
2.188 2.816 2.188 3.176 QT
2.188 3.91 2.688 3.91 QT
3.438 3.91 4.016 3.207 QT
4.594 2.504 4.891 1.66 QT
4.969 1.566 5.031 1.566 QT
5.234 1.566 L
5.297 1.566 5.344 1.613 QT
5.391 1.66 5.391 1.707 QT
5.391 1.738 5.375 1.754 QT
5 2.785 4.281 3.566 QT
3.563 4.347 2.641 4.347 QT
1.969 4.347 1.508 3.91 QT
1.047 3.472 1.047 2.785 QT
cp
f
GR
GS
[0.75 0 0 0.75 204.3 244.70055] CT
N
7.181 6.557 M
7.181 6.479 7.197 6.447 QT
8.087 2.869 L
8.181 2.541 8.181 2.276 QT
8.181 1.76 7.837 1.76 QT
7.462 1.76 7.275 2.213 QT
7.087 2.666 6.916 3.354 QT
6.916 3.385 6.884 3.408 QT
6.853 3.432 6.822 3.432 QT
6.681 3.432 L
6.634 3.432 6.611 3.385 QT
6.587 3.338 6.587 3.307 QT
6.712 2.776 6.83 2.416 QT
6.947 2.057 7.205 1.76 QT
7.462 1.463 7.837 1.463 QT
8.291 1.463 8.634 1.744 QT
8.978 2.026 8.978 2.463 QT
9.337 1.994 9.822 1.729 QT
10.306 1.463 10.837 1.463 QT
11.416 1.463 11.83 1.752 QT
12.244 2.041 12.244 2.572 QT
12.603 2.041 13.103 1.752 QT
13.603 1.463 14.181 1.463 QT
14.806 1.463 15.181 1.799 QT
15.556 2.135 15.556 2.744 QT
15.556 3.244 15.337 3.94 QT
15.119 4.635 14.791 5.494 QT
14.619 5.916 14.619 6.213 QT
14.619 6.572 14.9 6.572 QT
15.369 6.572 15.681 6.072 QT
15.994 5.572 16.119 4.994 QT
16.15 4.932 16.228 4.932 QT
16.369 4.932 L
16.416 4.932 16.447 4.963 QT
16.478 4.994 16.478 5.026 QT
16.478 5.041 16.462 5.072 QT
16.291 5.744 15.884 6.322 QT
15.478 6.901 14.869 6.901 QT
14.447 6.901 14.15 6.604 QT
13.853 6.307 13.853 5.901 QT
13.853 5.682 13.947 5.432 QT
14.291 4.526 14.517 3.815 QT
14.744 3.104 14.744 2.572 QT
14.744 2.229 14.611 1.994 QT
14.478 1.76 14.166 1.76 QT
13.509 1.76 13.025 2.166 QT
12.541 2.572 12.197 3.229 QT
12.166 3.354 12.15 3.416 QT
11.384 6.494 L
11.337 6.666 11.197 6.783 QT
11.056 6.901 10.884 6.901 QT
10.744 6.901 10.634 6.807 QT
10.525 6.713 10.525 6.557 QT
10.525 6.479 10.525 6.447 QT
11.306 3.385 L
11.416 2.901 11.416 2.572 QT
11.416 2.229 11.283 1.994 QT
11.15 1.76 10.822 1.76 QT
10.384 1.76 10.009 1.955 QT
9.634 2.151 9.361 2.471 QT
9.087 2.791 8.869 3.229 QT
8.041 6.494 L
8.009 6.666 7.861 6.783 QT
7.712 6.901 7.541 6.901 QT
7.4 6.901 7.291 6.807 QT
7.181 6.713 7.181 6.557 QT
cp
f
GR
GS
[0.75 0 0 0.75 204.3 244.70055] CT
N
19.334 6.901 M
18.756 6.901 18.327 6.596 QT
17.897 6.291 17.67 5.783 QT
17.444 5.276 17.444 4.713 QT
17.444 3.869 17.873 3.111 QT
18.303 2.354 19.037 1.908 QT
19.772 1.463 20.616 1.463 QT
21.131 1.463 21.522 1.729 QT
21.912 1.994 21.912 2.494 QT
21.912 3.182 21.358 3.518 QT
20.803 3.854 20.116 3.932 QT
19.428 4.01 18.584 4.01 QT
18.553 4.01 L
18.35 4.729 18.35 5.229 QT
18.35 5.776 18.6 6.174 QT
18.85 6.572 19.35 6.572 QT
20.069 6.572 20.725 6.244 QT
21.381 5.916 21.803 5.338 QT
21.834 5.307 21.897 5.307 QT
21.959 5.307 22.014 5.377 QT
22.069 5.447 22.069 5.494 QT
22.069 5.541 22.053 5.572 QT
21.616 6.182 20.873 6.541 QT
20.131 6.901 19.334 6.901 QT
cp
18.616 3.697 M
19.319 3.697 19.912 3.635 QT
20.506 3.572 20.983 3.315 QT
21.459 3.057 21.459 2.494 QT
21.459 2.276 21.334 2.111 QT
21.209 1.947 21.014 1.854 QT
20.819 1.76 20.616 1.76 QT
20.1 1.76 19.694 2.041 QT
19.287 2.322 19.022 2.76 QT
18.756 3.197 18.616 3.697 QT
cp
f
GR
GS
[0.75 0 0 0.75 204.3 244.70055] CT
N
24.656 6.901 M
23.89 6.901 23.453 6.322 QT
23.015 5.744 23.015 4.979 QT
23.015 4.197 23.414 3.377 QT
23.812 2.557 24.492 2.01 QT
25.171 1.463 25.953 1.463 QT
26.296 1.463 26.586 1.658 QT
26.875 1.854 27.031 2.182 QT
27.703 -0.506 L
27.75 -0.709 27.765 -0.818 QT
27.765 -1.021 26.984 -1.021 QT
26.859 -1.021 26.859 -1.178 QT
26.859 -1.209 26.882 -1.279 QT
26.906 -1.349 26.937 -1.396 QT
26.968 -1.443 27.031 -1.443 QT
28.64 -1.568 L
28.796 -1.568 28.796 -1.412 QT
27.062 5.494 L
26.984 5.682 26.984 6.057 QT
26.984 6.572 27.328 6.572 QT
27.703 6.572 27.898 6.096 QT
28.093 5.619 28.234 4.994 QT
28.25 4.932 28.328 4.932 QT
28.468 4.932 L
28.515 4.932 28.546 4.971 QT
28.578 5.01 28.578 5.041 QT
28.359 5.885 28.109 6.393 QT
27.859 6.901 27.296 6.901 QT
26.906 6.901 26.593 6.658 QT
26.281 6.416 26.203 6.026 QT
25.421 6.901 24.656 6.901 QT
cp
24.656 6.572 M
25.093 6.572 25.5 6.252 QT
25.906 5.932 26.203 5.494 QT
26.218 5.479 26.218 5.447 QT
26.875 2.791 L
26.796 2.369 26.554 2.065 QT
26.312 1.76 25.921 1.76 QT
25.515 1.76 25.164 2.096 QT
24.812 2.432 24.578 2.885 QT
24.343 3.354 24.132 4.197 QT
23.921 5.041 23.921 5.494 QT
23.921 5.916 24.101 6.244 QT
24.281 6.572 24.656 6.572 QT
cp
f
GR
GS
[0.75 0 0 0.75 204.3 244.70055] CT
N
35.84 1.894 M
35.699 1.894 35.606 1.793 QT
35.512 1.691 35.512 1.566 QT
35.512 1.426 35.606 1.324 QT
35.699 1.222 35.84 1.222 QT
46.512 1.222 L
46.637 1.222 46.731 1.324 QT
46.824 1.426 46.824 1.566 QT
46.824 1.691 46.731 1.793 QT
46.637 1.894 46.512 1.894 QT
35.84 1.894 L
cp
35.84 -1.403 M
35.699 -1.403 35.606 -1.504 QT
35.512 -1.606 35.512 -1.746 QT
35.512 -1.871 35.606 -1.981 QT
35.699 -2.09 35.84 -2.09 QT
46.512 -2.09 L
46.637 -2.09 46.731 -1.981 QT
46.824 -1.871 46.824 -1.746 QT
46.824 -1.606 46.731 -1.504 QT
46.637 -1.403 46.512 -1.403 QT
35.84 -1.403 L
cp
f
GR
GS
[0.75 0 0 0.75 204.3 244.70055] CT
N
52.29 4.535 M
50.212 4.535 49.462 2.816 QT
48.712 1.097 48.712 -1.262 QT
48.712 -2.731 48.978 -4.035 QT
49.243 -5.34 50.048 -6.254 QT
50.853 -7.168 52.29 -7.168 QT
53.415 -7.168 54.126 -6.621 QT
54.837 -6.074 55.212 -5.199 QT
55.587 -4.324 55.72 -3.34 QT
55.853 -2.356 55.853 -1.262 QT
55.853 0.207 55.587 1.48 QT
55.321 2.754 54.532 3.644 QT
53.743 4.535 52.29 4.535 QT
cp
52.29 4.097 M
53.243 4.097 53.704 3.121 QT
54.165 2.144 54.275 0.972 QT
54.384 -0.199 54.384 -1.528 QT
54.384 -2.809 54.275 -3.887 QT
54.165 -4.965 53.704 -5.84 QT
53.243 -6.715 52.29 -6.715 QT
51.321 -6.715 50.861 -5.84 QT
50.4 -4.965 50.29 -3.887 QT
50.181 -2.809 50.181 -1.528 QT
50.181 -0.59 50.228 0.246 QT
50.275 1.082 50.47 1.98 QT
50.665 2.879 51.111 3.488 QT
51.556 4.097 52.29 4.097 QT
cp
f
GR
GS
[0.75 0 0 0.75 204.3 244.70055] CT
N
58.129 3.222 M
58.129 2.847 58.418 2.566 QT
58.707 2.285 59.066 2.285 QT
59.301 2.285 59.527 2.41 QT
59.754 2.535 59.879 2.761 QT
60.004 2.988 60.004 3.222 QT
60.004 3.597 59.73 3.879 QT
59.457 4.16 59.066 4.16 QT
58.707 4.16 58.418 3.879 QT
58.129 3.597 58.129 3.222 QT
cp
f
GR
GS
[0.75 0 0 0.75 204.3 244.70055] CT
N
65.772 4.535 M
63.694 4.535 62.944 2.816 QT
62.194 1.097 62.194 -1.262 QT
62.194 -2.731 62.459 -4.035 QT
62.725 -5.34 63.53 -6.254 QT
64.334 -7.168 65.772 -7.168 QT
66.897 -7.168 67.608 -6.621 QT
68.319 -6.074 68.694 -5.199 QT
69.069 -4.324 69.201 -3.34 QT
69.334 -2.356 69.334 -1.262 QT
69.334 0.207 69.069 1.48 QT
68.803 2.754 68.014 3.644 QT
67.225 4.535 65.772 4.535 QT
cp
65.772 4.097 M
66.725 4.097 67.186 3.121 QT
67.647 2.144 67.756 0.972 QT
67.865 -0.199 67.865 -1.528 QT
67.865 -2.809 67.756 -3.887 QT
67.647 -4.965 67.186 -5.84 QT
66.725 -6.715 65.772 -6.715 QT
64.803 -6.715 64.342 -5.84 QT
63.881 -4.965 63.772 -3.887 QT
63.662 -2.809 63.662 -1.528 QT
63.662 -0.59 63.709 0.246 QT
63.756 1.082 63.951 1.98 QT
64.147 2.879 64.592 3.488 QT
65.037 4.097 65.772 4.097 QT
cp
f
GR
GS
[0.75 0 0 0.75 204.3 244.70055] CT
N
71.032 4.16 M
71.032 3.707 L
71.032 3.66 71.063 3.613 QT
73.704 0.691 L
74.313 0.035 74.681 -0.403 QT
75.048 -0.84 75.415 -1.41 QT
75.782 -1.981 75.993 -2.574 QT
76.204 -3.168 76.204 -3.84 QT
76.204 -4.528 75.946 -5.168 QT
75.688 -5.809 75.181 -6.184 QT
74.673 -6.559 73.954 -6.559 QT
73.204 -6.559 72.618 -6.121 QT
72.032 -5.684 71.798 -4.965 QT
71.86 -4.981 71.97 -4.981 QT
72.36 -4.981 72.626 -4.731 QT
72.892 -4.481 72.892 -4.059 QT
72.892 -3.684 72.626 -3.41 QT
72.36 -3.137 71.97 -3.137 QT
71.579 -3.137 71.306 -3.418 QT
71.032 -3.699 71.032 -4.059 QT
71.032 -4.699 71.274 -5.262 QT
71.517 -5.824 71.97 -6.262 QT
72.423 -6.699 72.993 -6.934 QT
73.563 -7.168 74.204 -7.168 QT
75.173 -7.168 76.009 -6.754 QT
76.845 -6.34 77.337 -5.59 QT
77.829 -4.84 77.829 -3.84 QT
77.829 -3.09 77.501 -2.426 QT
77.173 -1.762 76.673 -1.223 QT
76.173 -0.684 75.384 0.004 QT
74.595 0.691 74.345 0.926 QT
72.407 2.785 L
74.048 2.785 L
75.251 2.785 76.063 2.761 QT
76.876 2.738 76.923 2.691 QT
77.126 2.488 77.329 1.129 QT
77.829 1.129 L
77.345 4.16 L
71.032 4.16 L
cp
f
GR
GS
[0.75 0 0 0.75 204.3 244.70055] CT
N
83.105 4.535 M
81.027 4.535 80.277 2.816 QT
79.527 1.097 79.527 -1.262 QT
79.527 -2.731 79.793 -4.035 QT
80.058 -5.34 80.863 -6.254 QT
81.668 -7.168 83.105 -7.168 QT
84.23 -7.168 84.941 -6.621 QT
85.652 -6.074 86.027 -5.199 QT
86.402 -4.324 86.535 -3.34 QT
86.668 -2.356 86.668 -1.262 QT
86.668 0.207 86.402 1.48 QT
86.136 2.754 85.347 3.644 QT
84.558 4.535 83.105 4.535 QT
cp
83.105 4.097 M
84.058 4.097 84.519 3.121 QT
84.98 2.144 85.089 0.972 QT
85.199 -0.199 85.199 -1.528 QT
85.199 -2.809 85.089 -3.887 QT
84.98 -4.965 84.519 -5.84 QT
84.058 -6.715 83.105 -6.715 QT
82.136 -6.715 81.675 -5.84 QT
81.214 -4.965 81.105 -3.887 QT
80.996 -2.809 80.996 -1.528 QT
80.996 -0.59 81.043 0.246 QT
81.089 1.082 81.285 1.98 QT
81.48 2.879 81.925 3.488 QT
82.371 4.097 83.105 4.097 QT
cp
f
GR
GS
[0.75 0 0 0.75 204.3 244.70055] CT
N
87.991 1.347 M
87.991 0.754 L
93.256 -7.074 L
93.303 -7.168 93.428 -7.168 QT
93.678 -7.168 L
93.866 -7.168 93.866 -6.965 QT
93.866 0.754 L
95.537 0.754 L
95.537 1.347 L
93.866 1.347 L
93.866 3.019 L
93.866 3.379 94.366 3.472 QT
94.866 3.566 95.522 3.566 QT
95.522 4.16 L
90.834 4.16 L
90.834 3.566 L
91.491 3.566 91.991 3.472 QT
92.491 3.379 92.491 3.019 QT
92.491 1.347 L
87.991 1.347 L
cp
88.553 0.754 M
92.584 0.754 L
92.584 -5.262 L
88.553 0.754 L
cp
f
GR
GS
[0.75 0 0 0.75 204.3 244.70055] CT
N
96.657 1.347 M
96.657 0.754 L
101.923 -7.074 L
101.97 -7.168 102.095 -7.168 QT
102.345 -7.168 L
102.532 -7.168 102.532 -6.965 QT
102.532 0.754 L
104.204 0.754 L
104.204 1.347 L
102.532 1.347 L
102.532 3.019 L
102.532 3.379 103.032 3.472 QT
103.532 3.566 104.188 3.566 QT
104.188 4.16 L
99.501 4.16 L
99.501 3.566 L
100.157 3.566 100.657 3.472 QT
101.157 3.379 101.157 3.019 QT
101.157 1.347 L
96.657 1.347 L
cp
97.22 0.754 M
101.251 0.754 L
101.251 -5.262 L
97.22 0.754 L
cp
f
GR
GS
[0.75 0 0 0.75 204.3 244.70055] CT
N
105.324 1.347 M
105.324 0.754 L
110.59 -7.074 L
110.636 -7.168 110.761 -7.168 QT
111.011 -7.168 L
111.199 -7.168 111.199 -6.965 QT
111.199 0.754 L
112.871 0.754 L
112.871 1.347 L
111.199 1.347 L
111.199 3.019 L
111.199 3.379 111.699 3.472 QT
112.199 3.566 112.855 3.566 QT
112.855 4.16 L
108.168 4.16 L
108.168 3.566 L
108.824 3.566 109.324 3.472 QT
109.824 3.379 109.824 3.019 QT
109.824 1.347 L
105.324 1.347 L
cp
105.886 0.754 M
109.918 0.754 L
109.918 -5.262 L
105.886 0.754 L
cp
f
GR
%%Trailer
%%Pages: 1
%%EOF
